lab3/log/waveform_2.vcd
$date
	Tue Dec 26 14:42:11 2023
$end
$version
	Icarus Verilog
$end
$timescale
	1s
$end
$scope module TestBench $end
$var reg 1 ! Clk $end
$var reg 1 " Reset $end
$var integer 32 # counter [31:0] $end
$var integer 32 $ i [31:0] $end
$var integer 32 % outfile [31:0] $end
$scope module CPU $end
$var wire 1 & EXflush $end
$var wire 1 ' IFIDflush $end
$var wire 1 ! clk_i $end
$var wire 1 " rst_i $end
$var wire 5 ( rs2 [4:0] $end
$var wire 5 ) rs1 [4:0] $end
$var wire 7 * opcode [6:0] $end
$var wire 32 + instruction [31:0] $end
$var wire 2 , PC_MUX [1:0] $end
$scope module ALU $end
$var wire 32 - data_o [31:0] $end
$var wire 32 . data2_i [31:0] $end
$var wire 32 / data1_i [31:0] $end
$var wire 3 0 ALUCtrl_i [2:0] $end
$upscope $end
$scope module ALU_Control $end
$var wire 7 1 func7_i [6:0] $end
$var wire 3 2 func3_i [2:0] $end
$var wire 2 3 ALUOp_i [1:0] $end
$var wire 3 4 ALUCtrl_o [2:0] $end
$upscope $end
$scope module Add1 $end
$var wire 32 5 data2_i [31:0] $end
$var wire 32 6 data_o [31:0] $end
$var wire 32 7 data1_i [31:0] $end
$upscope $end
$scope module Add2 $end
$var wire 32 8 data1_i [31:0] $end
$var wire 32 9 data_o [31:0] $end
$var wire 32 : data2_i [31:0] $end
$upscope $end
$scope module Control $end
$var wire 1 ; ALUSrc_o $end
$var wire 1 < Branch_o $end
$var wire 1 = MemRead_o $end
$var wire 1 > MemWrite_o $end
$var wire 1 ? MemtoReg_o $end
$var wire 7 @ Opcode_i [6:0] $end
$var wire 1 A RegWrite_o $end
$var wire 1 B NoOp_i $end
$var wire 2 C ALUOp_o [1:0] $end
$upscope $end
$scope module Data_Memory $end
$var wire 1 ! clk_i $end
$var wire 32 D data_o [31:0] $end
$var wire 32 E data_i [31:0] $end
$var wire 32 F addr_i [31:0] $end
$var wire 1 G MemWrite_i $end
$var wire 1 H MemRead_i $end
$upscope $end
$scope module EX_MEM $end
$var wire 32 I ALUrslt_i [31:0] $end
$var wire 1 ! clk_i $end
$var wire 1 " rst_i $end
$var wire 5 J rd_i [4:0] $end
$var wire 1 K RegWrite_i $end
$var wire 1 L MemtoReg_i $end
$var wire 1 M MemWrite_i $end
$var wire 1 N MemRead_i $end
$var wire 32 O MUXrslt_i [31:0] $end
$var reg 32 P ALUrslt_o [31:0] $end
$var reg 32 Q MUXrslt_o [31:0] $end
$var reg 1 H MemRead_o $end
$var reg 1 G MemWrite_o $end
$var reg 1 R MemtoReg_o $end
$var reg 1 S RegWrite_o $end
$var reg 5 T rd_o [4:0] $end
$upscope $end
$scope module FU $end
$var wire 1 S MEM_RegWrite_i $end
$var wire 5 U MEM_rd_i [4:0] $end
$var wire 2 V forwardB_o [1:0] $end
$var wire 2 W forwardA_o [1:0] $end
$var wire 5 X WB_rd_i [4:0] $end
$var wire 1 Y WB_RegWrite_i $end
$var wire 5 Z EX_rs2_i [4:0] $end
$var wire 5 [ EX_rs1_i [4:0] $end
$upscope $end
$scope module Hazard_Detection $end
$var wire 1 B NoOp_o $end
$var wire 1 \ PCWrite_o $end
$var wire 1 ] Stall_o $end
$var wire 5 ^ rs1_i [4:0] $end
$var wire 5 _ rs2_i [4:0] $end
$var wire 5 ` rd_i [4:0] $end
$var wire 1 N MemRead_i $end
$upscope $end
$scope module ID_EX $end
$var wire 2 a ALUOp_i [1:0] $end
$var wire 1 ; ALUSrc_i $end
$var wire 32 b Add2_i [31:0] $end
$var wire 1 = MemRead_i $end
$var wire 1 > MemWrite_i $end
$var wire 1 ? MemtoReg_i $end
$var wire 1 A RegWrite_i $end
$var wire 1 < branch_i $end
$var wire 1 ! clk_i $end
$var wire 1 & flush_i $end
$var wire 1 " rst_i $end
$var wire 1 c predict_i $end
$var wire 32 d pc_i [31:0] $end
$var wire 32 e instr_i [31:0] $end
$var wire 32 f data2_i [31:0] $end
$var wire 32 g data1_i [31:0] $end
$var wire 32 h ImmGen_i [31:0] $end
$var reg 2 i ALUOp_o [1:0] $end
$var reg 1 j ALUSrc_o $end
$var reg 32 k Add2_o [31:0] $end
$var reg 1 l Branch_o $end
$var reg 5 m EX_rs1_o [4:0] $end
$var reg 5 n EX_rs2_o [4:0] $end
$var reg 32 o ImmGen_o [31:0] $end
$var reg 1 N MemRead_o $end
$var reg 1 M MemWrite_o $end
$var reg 1 L MemtoReg_o $end
$var reg 1 K RegWrite_o $end
$var reg 32 p data1_o [31:0] $end
$var reg 32 q data2_o [31:0] $end
$var reg 3 r func3_o [2:0] $end
$var reg 7 s func7_o [6:0] $end
$var reg 32 t pc_o [31:0] $end
$var reg 1 u predict_o $end
$var reg 5 v rd_o [4:0] $end
$upscope $end
$scope module IF_ID $end
$var wire 1 ! clk_i $end
$var wire 1 ' flush_i $end
$var wire 1 " rst_i $end
$var wire 1 ] stall_i $end
$var wire 32 w pc_i [31:0] $end
$var wire 32 x instr_i [31:0] $end
$var reg 32 y instr_o [31:0] $end
$var reg 32 z pc_o [31:0] $end
$upscope $end
$scope module ImmGen $end
$var wire 32 { instr_i [31:0] $end
$var wire 32 | imm_o [31:0] $end
$upscope $end
$scope module Instruction_Memory $end
$var wire 32 } instr_o [31:0] $end
$var wire 32 ~ addr_i [31:0] $end
$upscope $end
$scope module MEM_WB $end
$var wire 32 !" ALUrslt_i [31:0] $end
$var wire 1 R MemtoReg_i $end
$var wire 32 "" ReadData_i [31:0] $end
$var wire 1 S RegWrite_i $end
$var wire 1 ! clk_i $end
$var wire 5 #" rd_i [4:0] $end
$var wire 1 " rst_i $end
$var reg 32 $" ALUrslt_o [31:0] $end
$var reg 1 %" MemtoReg_o $end
$var reg 32 &" ReadData_o [31:0] $end
$var reg 1 Y RegWrite_o $end
$var reg 5 '" rd_o [4:0] $end
$upscope $end
$scope module MUX1 $end
$var wire 32 (" data00_i [31:0] $end
$var wire 32 )" data01_i [31:0] $end
$var wire 32 *" data10_i [31:0] $end
$var wire 32 +" data11_i [31:0] $end
$var wire 2 ," forward_i [1:0] $end
$var wire 32 -" data_o [31:0] $end
$upscope $end
$scope module MUX11 $end
$var wire 32 ." data00_i [31:0] $end
$var wire 32 /" data10_i [31:0] $end
$var wire 32 0" data11_i [31:0] $end
$var wire 2 1" forward_i [1:0] $end
$var wire 32 2" data_o [31:0] $end
$var wire 32 3" data01_i [31:0] $end
$upscope $end
$scope module MUX2 $end
$var wire 32 4" data1_i [31:0] $end
$var wire 1 j select_i $end
$var wire 32 5" data_o [31:0] $end
$var wire 32 6" data0_i [31:0] $end
$upscope $end
$scope module MUX22 $end
$var wire 32 7" data00_i [31:0] $end
$var wire 32 8" data10_i [31:0] $end
$var wire 32 9" data11_i [31:0] $end
$var wire 2 :" forward_i [1:0] $end
$var wire 32 ;" data_o [31:0] $end
$var wire 32 <" data01_i [31:0] $end
$upscope $end
$scope module MUX3 $end
$var wire 32 =" data0_i [31:0] $end
$var wire 32 >" data1_i [31:0] $end
$var wire 1 %" select_i $end
$var wire 32 ?" data_o [31:0] $end
$upscope $end
$scope module PC $end
$var wire 1 \ PCWrite_i $end
$var wire 1 ! clk_i $end
$var wire 32 @" pc_i [31:0] $end
$var wire 1 " rst_i $end
$var reg 32 A" pc_o [31:0] $end
$upscope $end
$scope module Registers $end
$var wire 5 B" RDaddr_i [4:0] $end
$var wire 32 C" RDdata_i [31:0] $end
$var wire 5 D" RS1addr_i [4:0] $end
$var wire 5 E" RS2addr_i [4:0] $end
$var wire 1 Y RegWrite_i $end
$var wire 1 ! clk_i $end
$var wire 1 " rst_i $end
$var wire 32 F" RS2data_o [31:0] $end
$var wire 32 G" RS1data_o [31:0] $end
$var integer 32 H" i [31:0] $end
$upscope $end
$scope module branch_predictor $end
$var wire 32 I" EX_ALUout_i [31:0] $end
$var wire 1 l EX_branch_i $end
$var wire 1 < branch_i $end
$var wire 1 ! clk_i $end
$var wire 1 J" flush_o $end
$var wire 1 " rst_i $end
$var wire 1 c predict_o $end
$var reg 2 K" state [1:0] $end
$upscope $end
$upscope $end
$upscope $end
$enddefinitions $end
#0
$dumpvars
bx K"
xJ"
bx I"
bx H"
bx G"
bx F"
bx E"
bx D"
bx C"
bx B"
bx A"
bx @"
bx ?"
bx >"
bx ="
bx <"
bx ;"
bx :"
b0 9"
bx 8"
bx 7"
bx 6"
bx 5"
bx 4"
bx 3"
bx 2"
bx 1"
b0 0"
bx /"
bx ."
bx -"
bx ,"
bx +"
bx *"
bx )"
bx ("
bx '"
bx &"
x%"
bx $"
bx #"
bx ""
bx !"
bx ~
bx }
bx |
bx {
bx z
bx y
bx x
bx w
bx v
xu
bx t
bx s
bx r
bx q
bx p
bx o
bx n
bx m
xl
bx k
xj
bx i
bx h
bx g
bx f
bx e
bx d
xc
bx b
bx a
bx `
bx _
bx ^
x]
x\
bx [
bx Z
xY
bx X
bx W
bx V
bx U
bx T
xS
xR
bx Q
bx P
bx O
xN
xM
xL
xK
bx J
bx I
xH
xG
bx F
bx E
bx D
bx C
xB
xA
bx @
x?
x>
x=
x<
x;
bx :
bx 9
bx0 8
bx 7
bx 6
b100 5
bx 4
bx 3
bx 2
bx 1
bx 0
bx /
bx .
bx -
bx ,
bx +
bx *
bx )
bx (
x'
x&
b11 %
b100000 $
b0 #
1"
0!
$end
#6
b0 -
b0 I
b0 I"
b11 0
b11 4
b100 -"
b100 @"
0;
0A
b0 ,
b0 ,"
b0 .
b0 5"
b0 9
b0 b
b0 )"
b0 8
b0 C
b0 a
0'
b0 O
b0 6"
b0 ;"
b0 /
b0 2"
0J"
b0 h
b0 |
0?
0<
0=
0>
0&
b0 V
b0 :"
b0 W
b0 1"
1\
b0 g
b0 G"
b0 f
b0 F"
1c
b10100000000000100010011 x
b10100000000000100010011 }
b0 *
b0 @
b0 (
b0 _
b0 E"
b0 )
b0 ^
b0 D"
0]
0B
b0 D
b0 ""
b0 3"
b0 <"
b0 ?"
b0 C"
b11 K"
b100 6
b100 ("
b0 7
b0 w
b0 ~
b0 A"
b0 :
b0 d
b0 z
b0 +
b0 e
b0 y
b0 {
0u
0l
b0 k
b0 *"
b0 t
b0 +"
b0 1
b0 s
b0 2
b0 r
b0 J
b0 `
b0 v
b0 Z
b0 n
b0 [
b0 m
b0 o
b0 4"
b0 q
b0 7"
b0 p
b0 ."
b11 3
b11 i
0j
0M
0N
0L
0K
b0 T
b0 U
b0 #"
b0 E
b0 Q
b0 F
b0 P
b0 !"
b0 /"
b0 8"
0G
0H
0R
0S
b0 X
b0 '"
b0 B"
b0 &"
b0 >"
b0 $"
b0 ="
0%"
0Y
b100000 H"
0"
#12
1"
#25
b1010 9
b1010 b
b1010 )"
b1010 8
b101 h
b101 |
1A
1;
b10011 *
b10011 @
b101 (
b101 _
b101 E"
b100000000000010010011 x
b100000000000010010011 }
b1000 -"
b1000 @"
1u
b100 t
b100 +"
b0 3
b0 i
b10100000000000100010011 +
b10100000000000100010011 e
b10100000000000100010011 y
b10100000000000100010011 {
b1000 6
b1000 ("
b100 7
b100 w
b100 ~
b100 A"
b1 #
1!
#50
0!
#75
b10 8
b101 -
b101 I
b101 I"
b1 h
b1 |
b10000000001000010001100011 x
b10000000001000010001100011 }
b1100 -"
b1100 @"
b1 (
b1 _
b1 E"
b101 .
b101 5"
b1100 6
b1100 ("
b1000 7
b1000 w
b1000 ~
b1000 A"
b100000000000010010011 +
b100000000000010010011 e
b100000000000010010011 y
b100000000000010010011 {
b110 9
b110 b
b110 )"
b100 :
b100 d
b100 z
b1010 k
b1010 *"
b10 J
b10 `
b10 v
b101 Z
b101 n
b101 o
b101 4"
1j
1K
b10 #
1!
#100
0!
#125
b1 ,
b1 ,"
b1 -
b1 I
b1 I"
b101000 8
0A
1'
b1 C
b1 a
b10100 h
b10100 |
0;
1J"
1<
b1 .
b1 5"
b1100011 *
b1100011 @
b0 (
b0 _
b0 E"
b1 )
b1 ^
b1 D"
b100001000000010010011 x
b100001000000010010011 }
b110000 -"
b110000 @"
b10 T
b10 U
b10 #"
b101 F
b101 P
b101 !"
b101 /"
b101 8"
1S
b110 k
b110 *"
b1000 t
b1000 +"
b1 J
b1 `
b1 v
b1 Z
b1 n
b1 o
b1 4"
b10000000001000010001100011 +
b10000000001000010001100011 e
b10000000001000010001100011 y
b10000000001000010001100011 {
b110000 9
b110000 b
b110000 )"
b1000 :
b1000 d
b1000 z
b10000 6
b10000 ("
b1100 7
b1100 w
b1100 ~
b1100 A"
b11 #
1!
#150
0!
#175
1'
b100 0
b100 4
b1 /
b1 2"
b1 -
b1 I
b1 I"
b0 8
b0 C
b0 a
b0 h
b0 |
0J"
b11 ,
b11 ,"
0<
b1100 -"
b1100 @"
1&
b10 W
b10 1"
b0 x
b0 }
b0 *
b0 @
b0 )
b0 ^
b0 D"
b0 .
b0 5"
b101 3"
b101 <"
b101 ?"
b101 C"
b110100 6
b110100 ("
b110000 7
b110000 w
b110000 ~
b110000 A"
b0 +
b0 e
b0 y
b0 {
b1100 9
b1100 b
b1100 )"
b1100 :
b1100 d
b1100 z
1l
b110000 k
b110000 *"
b1100 t
b1100 +"
b1000 J
b1000 `
b1000 v
b0 Z
b0 n
b1 [
b1 m
b1 1
b1 s
b10100 o
b10100 4"
0j
b1 3
b1 i
0K
b1 T
b1 U
b1 #"
b1 F
b1 P
b1 !"
b1 /"
b1 8"
b10 X
b10 '"
b10 B"
b101 $"
b101 ="
1Y
b100 #
1!
#200
0!
#225
b0 -
b0 I
b0 I"
b11 0
b11 4
b0 ,
b0 ,"
0'
b10000 -"
b10000 @"
b0 /
b0 2"
0&
b0 W
b0 1"
b1 3"
b1 <"
b1 ?"
b1 C"
b100001000000010010011 x
b100001000000010010011 }
b1 X
b1 '"
b1 B"
b1 $"
b1 ="
b1000 T
b1000 U
b1000 #"
0S
0l
b1100 k
b1100 *"
b10000 t
b10000 +"
b0 J
b0 `
b0 v
b0 [
b0 m
b0 1
b0 s
b0 o
b0 4"
b0 3
b0 i
b110000 9
b110000 b
b110000 )"
b110000 :
b110000 d
b110000 z
b10000 6
b10000 ("
b1100 7
b1100 w
b1100 ~
b1100 A"
b10 K"
b101 #
1!
#250
0!
#275
b10 8
b1 h
b1 |
1A
1;
b1 f
b1 F"
b1 g
b1 G"
b1000001000100001100011 x
b1000001000100001100011 }
b10100 -"
b10100 @"
b10011 *
b10011 @
b1 (
b1 _
b1 E"
b1 )
b1 ^
b1 D"
b10100 6
b10100 ("
b10000 7
b10000 w
b10000 ~
b10000 A"
b100001000000010010011 +
b100001000000010010011 e
b100001000000010010011 y
b100001000000010010011 {
b1110 9
b1110 b
b1110 )"
b1100 :
b1100 d
b1100 z
b110000 k
b110000 *"
b110100 t
b110100 +"
b0 T
b0 U
b0 #"
b0 F
b0 P
b0 !"
b0 /"
b0 8"
b1000 X
b1000 '"
b1000 B"
0Y
b110 #
1!
#300
0!
#325
b1 ,
b1 ,"
b10 -
b10 I
b10 I"
b10000 8
0A
1'
b1 C
b1 a
b1000 h
b1000 |
0;
1J"
1<
b101 f
b101 F"
b0 3"
b0 <"
b0 ?"
b0 C"
b1 O
b1 6"
b1 ;"
b1 /
b1 2"
b1 .
b1 5"
b1100011 *
b1100011 @
b10 (
b10 _
b10 E"
b11111110000000000000110011100011 x
b11111110000000000000110011100011 }
b100000 -"
b100000 @"
b0 X
b0 '"
b0 B"
b0 $"
b0 ="
b1110 k
b1110 *"
b10000 t
b10000 +"
b1 J
b1 `
b1 v
b1 Z
b1 n
b1 [
b1 m
b1 o
b1 4"
b1 q
b1 7"
b1 p
b1 ."
1j
1K
b1000001000100001100011 +
b1000001000100001100011 e
b1000001000100001100011 y
b1000001000100001100011 {
b100000 9
b100000 b
b100000 )"
b10000 :
b10000 d
b10000 z
b11000 6
b11000 ("
b10100 7
b10100 w
b10100 ~
b10100 A"
b111 #
1!
#350
0!
#375
1'
b11111111111111111111111111111101 -
b11111111111111111111111111111101 I
b11111111111111111111111111111101 I"
b100 0
b100 4
b0 8
b0 C
b0 a
b0 h
b0 |
0J"
b11 ,
b11 ,"
b10 /
b10 2"
0<
b0 f
b0 F"
b0 g
b0 G"
b10100 -"
b10100 @"
1&
b101 .
b101 5"
b10 W
b10 1"
b11111110000000001000111011100011 x
b11111110000000001000111011100011 }
b0 *
b0 @
b0 (
b0 _
b0 E"
b0 )
b0 ^
b0 D"
b101 O
b101 6"
b101 ;"
b100100 6
b100100 ("
b100000 7
b100000 w
b100000 ~
b100000 A"
b0 +
b0 e
b0 y
b0 {
b10100 9
b10100 b
b10100 )"
b10100 :
b10100 d
b10100 z
1l
b100000 k
b100000 *"
b10100 t
b10100 +"
b10000 J
b10000 `
b10000 v
b10 Z
b10 n
b1000 o
b1000 4"
b101 q
b101 7"
0j
b1 3
b1 i
0K
b1 T
b1 U
b1 #"
b1 E
b1 Q
b10 F
b10 P
b10 !"
b10 /"
b10 8"
1S
b1000 #
1!
#400
0!
#425
b0 -
b0 I
b0 I"
b11 0
b11 4
b0 ,
b0 ,"
0'
b11000 -"
b11000 @"
b0 /
b0 2"
0&
b0 W
b0 1"
b0 .
b0 5"
b10 3"
b10 <"
b10 ?"
b10 C"
b0 O
b0 6"
b0 ;"
b11111110000000000000110011100011 x
b11111110000000000000110011100011 }
0c
b1 X
b1 '"
b1 B"
b10 $"
b10 ="
1Y
b10000 T
b10000 U
b10000 #"
b101 E
b101 Q
b11111111111111111111111111111101 F
b11111111111111111111111111111101 P
b11111111111111111111111111111101 !"
b11111111111111111111111111111101 /"
b11111111111111111111111111111101 8"
0S
0l
b10100 k
b10100 *"
b11000 t
b11000 +"
b0 J
b0 `
b0 v
b0 Z
b0 n
b0 [
b0 m
b0 o
b0 4"
b0 q
b0 7"
b0 p
b0 ."
b0 3
b0 i
b100000 9
b100000 b
b100000 )"
b100000 :
b100000 d
b100000 z
b11000 6
b11000 ("
b10100 7
b10100 w
b10100 ~
b10100 A"
b1 K"
b1001 #
1!
#450
0!
#475
b11111111111111111111111111111000 8
b1 C
b1 a
b11111111111111111111111111111100 h
b11111111111111111111111111111100 |
1<
b10011 x
b10011 }
b11100 -"
b11100 @"
b1100011 *
b1100011 @
b11111111111111111111111111111101 3"
b11111111111111111111111111111101 <"
b11111111111111111111111111111101 ?"
b11111111111111111111111111111101 C"
b11100 6
b11100 ("
b11000 7
b11000 w
b11000 ~
b11000 A"
b11111110000000000000110011100011 +
b11111110000000000000110011100011 e
b11111110000000000000110011100011 y
b11111110000000000000110011100011 {
b1100 9
b1100 b
b1100 )"
b10100 :
b10100 d
b10100 z
0u
b100000 k
b100000 *"
b100100 t
b100100 +"
b0 T
b0 U
b0 #"
b0 E
b0 Q
b0 F
b0 P
b0 !"
b0 /"
b0 8"
b10000 X
b10000 '"
b10000 B"
b11111111111111111111111111111101 $"
b11111111111111111111111111111101 ="
0Y
b1010 #
1!
#500
0!
#525
b100 0
b100 4
b10 ,
b10 ,"
b0 8
1A
b0 C
b0 a
1'
b0 h
b0 |
1;
1&
0<
b0 3"
b0 <"
b0 ?"
b0 C"
b10011 *
b10011 @
b1100 -"
b1100 @"
b0 X
b0 '"
b0 B"
b0 $"
b0 ="
1l
b1100 k
b1100 *"
b11000 t
b11000 +"
b11001 J
b11001 `
b11001 v
b1111111 1
b1111111 s
b11111111111111111111111111111100 o
b11111111111111111111111111111100 4"
b1 3
b1 i
b10011 +
b10011 e
b10011 y
b10011 {
b11000 9
b11000 b
b11000 )"
b11000 :
b11000 d
b11000 z
b100000 6
b100000 ("
b11100 7
b11100 w
b11100 ~
b11100 A"
b1011 #
1!
#550
0!
#575
b11 0
b11 4
0A
b0 ,
b0 ,"
0;
0'
b10000 -"
b10000 @"
0&
1c
b100001000000010010011 x
b100001000000010010011 }
b0 *
b0 @
b10 K"
b10000 6
b10000 ("
b1100 7
b1100 w
b1100 ~
b1100 A"
b0 +
b0 e
b0 y
b0 {
b11100 9
b11100 b
b11100 )"
b11100 :
b11100 d
b11100 z
0l
b11000 k
b11000 *"
b11100 t
b11100 +"
b0 J
b0 `
b0 v
b0 1
b0 s
b0 o
b0 4"
1j
b0 3
b0 i
1K
b11001 T
b11001 U
b11001 #"
b1100 #
1!
#600
0!
#625
b10 8
b1 h
b1 |
1A
1;
b10 f
b10 F"
b10 g
b10 G"
b10011 *
b10011 @
b1 (
b1 _
b1 E"
b1 )
b1 ^
b1 D"
b1000001000100001100011 x
b1000001000100001100011 }
b10100 -"
b10100 @"
b11001 X
b11001 '"
b11001 B"
b0 T
b0 U
b0 #"
1S
1u
b11100 k
b11100 *"
b100000 t
b100000 +"
0j
0K
b100001000000010010011 +
b100001000000010010011 e
b100001000000010010011 y
b100001000000010010011 {
b1110 9
b1110 b
b1110 )"
b1100 :
b1100 d
b1100 z
b10100 6
b10100 ("
b10000 7
b10000 w
b10000 ~
b10000 A"
b1101 #
1!
#650
0!
#675
b1 ,
b1 ,"
b11 -
b11 I
b11 I"
b10000 8
0A
1'
b1 C
b1 a
b1000 h
b1000 |
0;
1J"
1<
b101 f
b101 F"
b11111110000000000000110011100011 x
b11111110000000000000110011100011 }
b100000 -"
b100000 @"
b1100011 *
b1100011 @
b10 (
b10 _
b10 E"
b10 O
b10 6"
b10 ;"
b10 /
b10 2"
b1 .
b1 5"
b11000 6
b11000 ("
b10100 7
b10100 w
b10100 ~
b10100 A"
b1000001000100001100011 +
b1000001000100001100011 e
b1000001000100001100011 y
b1000001000100001100011 {
b100000 9
b100000 b
b100000 )"
b10000 :
b10000 d
b10000 z
b1110 k
b1110 *"
b10000 t
b10000 +"
b1 J
b1 `
b1 v
b1 Z
b1 n
b1 [
b1 m
b1 o
b1 4"
b10 q
b10 7"
b10 p
b10 ."
1j
1K
0S
b0 X
b0 '"
b0 B"
1Y
b1110 #
1!
#700
0!
#725
1'
b100 0
b100 4
b11111111111111111111111111111110 -
b11111111111111111111111111111110 I
b11111111111111111111111111111110 I"
b0 8
b0 C
b0 a
b11 /
b11 2"
b11 ,
b11 ,"
b0 h
b0 |
0J"
b10 W
b10 1"
1&
0<
b0 f
b0 F"
b0 g
b0 G"
b10100 -"
b10100 @"
b101 O
b101 6"
b101 ;"
b101 .
b101 5"
b0 *
b0 @
b0 (
b0 _
b0 E"
b0 )
b0 ^
b0 D"
b11111110000000001000111011100011 x
b11111110000000001000111011100011 }
0Y
b1 T
b1 U
b1 #"
b10 E
b10 Q
b11 F
b11 P
b11 !"
b11 /"
b11 8"
1S
1l
b100000 k
b100000 *"
b10100 t
b10100 +"
b10000 J
b10000 `
b10000 v
b10 Z
b10 n
b1000 o
b1000 4"
b101 q
b101 7"
0j
b1 3
b1 i
0K
b0 +
b0 e
b0 y
b0 {
b10100 9
b10100 b
b10100 )"
b10100 :
b10100 d
b10100 z
b100100 6
b100100 ("
b100000 7
b100000 w
b100000 ~
b100000 A"
b1111 #
1!
#750
0!
#775
b0 -
b0 I
b0 I"
b11 0
b11 4
b0 ,
b0 ,"
0'
b11000 -"
b11000 @"
b0 /
b0 2"
0&
b0 .
b0 5"
b0 W
b0 1"
0c
b11111110000000000000110011100011 x
b11111110000000000000110011100011 }
b0 O
b0 6"
b0 ;"
b11 3"
b11 <"
b11 ?"
b11 C"
b1 K"
b11000 6
b11000 ("
b10100 7
b10100 w
b10100 ~
b10100 A"
b100000 9
b100000 b
b100000 )"
b100000 :
b100000 d
b100000 z
0l
b10100 k
b10100 *"
b11000 t
b11000 +"
b0 J
b0 `
b0 v
b0 Z
b0 n
b0 [
b0 m
b0 o
b0 4"
b0 q
b0 7"
b0 p
b0 ."
b0 3
b0 i
b10000 T
b10000 U
b10000 #"
b101 E
b101 Q
b11111111111111111111111111111110 F
b11111111111111111111111111111110 P
b11111111111111111111111111111110 !"
b11111111111111111111111111111110 /"
b11111111111111111111111111111110 8"
0S
b1 X
b1 '"
b1 B"
b11 $"
b11 ="
1Y
b10000 #
1!
#800
0!
#825
b11111111111111111111111111111000 8
b1 C
b1 a
b11111111111111111111111111111100 h
b11111111111111111111111111111100 |
1<
b11111111111111111111111111111110 3"
b11111111111111111111111111111110 <"
b11111111111111111111111111111110 ?"
b11111111111111111111111111111110 C"
b1100011 *
b1100011 @
b10011 x
b10011 }
b11100 -"
b11100 @"
b10000 X
b10000 '"
b10000 B"
b11111111111111111111111111111110 $"
b11111111111111111111111111111110 ="
0Y
b0 T
b0 U
b0 #"
b0 E
b0 Q
b0 F
b0 P
b0 !"
b0 /"
b0 8"
0u
b100000 k
b100000 *"
b100100 t
b100100 +"
b11111110000000000000110011100011 +
b11111110000000000000110011100011 e
b11111110000000000000110011100011 y
b11111110000000000000110011100011 {
b1100 9
b1100 b
b1100 )"
b10100 :
b10100 d
b10100 z
b11100 6
b11100 ("
b11000 7
b11000 w
b11000 ~
b11000 A"
b10001 #
1!
#850
0!
#875
b100 0
b100 4
b0 8
1A
b0 C
b0 a
b10 ,
b10 ,"
b0 h
b0 |
1;
1'
0<
1&
b1100 -"
b1100 @"
b10011 *
b10011 @
b0 3"
b0 <"
b0 ?"
b0 C"
b100000 6
b100000 ("
b11100 7
b11100 w
b11100 ~
b11100 A"
b10011 +
b10011 e
b10011 y
b10011 {
b11000 9
b11000 b
b11000 )"
b11000 :
b11000 d
b11000 z
1l
b1100 k
b1100 *"
b11000 t
b11000 +"
b11001 J
b11001 `
b11001 v
b1111111 1
b1111111 s
b11111111111111111111111111111100 o
b11111111111111111111111111111100 4"
b1 3
b1 i
b0 X
b0 '"
b0 B"
b0 $"
b0 ="
b10010 #
1!
#900
0!
#925
b11 0
b11 4
b0 ,
b0 ,"
0A
0'
b10000 -"
b10000 @"
0;
0&
b0 *
b0 @
b100001000000010010011 x
b100001000000010010011 }
1c
b11001 T
b11001 U
b11001 #"
0l
b11000 k
b11000 *"
b11100 t
b11100 +"
b0 J
b0 `
b0 v
b0 1
b0 s
b0 o
b0 4"
1j
b0 3
b0 i
1K
b0 +
b0 e
b0 y
b0 {
b11100 9
b11100 b
b11100 )"
b11100 :
b11100 d
b11100 z
b10000 6
b10000 ("
b1100 7
b1100 w
b1100 ~
b1100 A"
b10 K"
b10011 #
1!
#950
0!
#975
b10 8
b1 h
b1 |
1A
1;
b11 f
b11 F"
b11 g
b11 G"
b1000001000100001100011 x
b1000001000100001100011 }
b10100 -"
b10100 @"
b10011 *
b10011 @
b1 (
b1 _
b1 E"
b1 )
b1 ^
b1 D"
b10100 6
b10100 ("
b10000 7
b10000 w
b10000 ~
b10000 A"
b100001000000010010011 +
b100001000000010010011 e
b100001000000010010011 y
b100001000000010010011 {
b1110 9
b1110 b
b1110 )"
b1100 :
b1100 d
b1100 z
1u
b11100 k
b11100 *"
b100000 t
b100000 +"
0j
0K
b0 T
b0 U
b0 #"
1S
b11001 X
b11001 '"
b11001 B"
b10100 #
1!
#1000
0!
#1025
b1 ,
b1 ,"
b100 -
b100 I
b100 I"
b10000 8
0A
1'
b1 C
b1 a
b1000 h
b1000 |
0;
1J"
1<
b101 f
b101 F"
b11 O
b11 6"
b11 ;"
b11 /
b11 2"
b1 .
b1 5"
b1100011 *
b1100011 @
b10 (
b10 _
b10 E"
b11111110000000000000110011100011 x
b11111110000000000000110011100011 }
b100000 -"
b100000 @"
b0 X
b0 '"
b0 B"
1Y
0S
b1110 k
b1110 *"
b10000 t
b10000 +"
b1 J
b1 `
b1 v
b1 Z
b1 n
b1 [
b1 m
b1 o
b1 4"
b11 q
b11 7"
b11 p
b11 ."
1j
1K
b1000001000100001100011 +
b1000001000100001100011 e
b1000001000100001100011 y
b1000001000100001100011 {
b100000 9
b100000 b
b100000 )"
b10000 :
b10000 d
b10000 z
b11000 6
b11000 ("
b10100 7
b10100 w
b10100 ~
b10100 A"
b10101 #
1!
#1050
0!
#1075
1'
b100 0
b100 4
b11111111111111111111111111111111 -
b11111111111111111111111111111111 I
b11111111111111111111111111111111 I"
b0 8
b0 C
b0 a
b0 h
b0 |
0J"
b11 ,
b11 ,"
b100 /
b100 2"
0<
b0 f
b0 F"
b0 g
b0 G"
b10100 -"
b10100 @"
1&
b10 W
b10 1"
b11111110000000001000111011100011 x
b11111110000000001000111011100011 }
b0 *
b0 @
b0 (
b0 _
b0 E"
b0 )
b0 ^
b0 D"
b101 O
b101 6"
b101 ;"
b101 .
b101 5"
b100100 6
b100100 ("
b100000 7
b100000 w
b100000 ~
b100000 A"
b0 +
b0 e
b0 y
b0 {
b10100 9
b10100 b
b10100 )"
b10100 :
b10100 d
b10100 z
1l
b100000 k
b100000 *"
b10100 t
b10100 +"
b10000 J
b10000 `
b10000 v
b10 Z
b10 n
b1000 o
b1000 4"
b101 q
b101 7"
0j
b1 3
b1 i
0K
b1 T
b1 U
b1 #"
b11 E
b11 Q
b100 F
b100 P
b100 !"
b100 /"
b100 8"
1S
0Y
b10110 #
1!
#1100
0!
