lab3/log/waveform_1.vcd
$date
	Tue Dec 26 14:42:11 2023
$end
$version
	Icarus Verilog
$end
$timescale
	1s
$end
$scope module TestBench $end
$var reg 1 ! Clk $end
$var reg 1 " Reset $end
$var integer 32 # counter [31:0] $end
$var integer 32 $ i [31:0] $end
$var integer 32 % outfile [31:0] $end
$scope module CPU $end
$var wire 1 & EXflush $end
$var wire 1 ' IFIDflush $end
$var wire 1 ! clk_i $end
$var wire 1 " rst_i $end
$var wire 5 ( rs2 [4:0] $end
$var wire 5 ) rs1 [4:0] $end
$var wire 7 * opcode [6:0] $end
$var wire 32 + instruction [31:0] $end
$var wire 2 , PC_MUX [1:0] $end
$scope module ALU $end
$var wire 32 - data_o [31:0] $end
$var wire 32 . data2_i [31:0] $end
$var wire 32 / data1_i [31:0] $end
$var wire 3 0 ALUCtrl_i [2:0] $end
$upscope $end
$scope module ALU_Control $end
$var wire 7 1 func7_i [6:0] $end
$var wire 3 2 func3_i [2:0] $end
$var wire 2 3 ALUOp_i [1:0] $end
$var wire 3 4 ALUCtrl_o [2:0] $end
$upscope $end
$scope module Add1 $end
$var wire 32 5 data2_i [31:0] $end
$var wire 32 6 data_o [31:0] $end
$var wire 32 7 data1_i [31:0] $end
$upscope $end
$scope module Add2 $end
$var wire 32 8 data1_i [31:0] $end
$var wire 32 9 data_o [31:0] $end
$var wire 32 : data2_i [31:0] $end
$upscope $end
$scope module Control $end
$var wire 1 ; ALUSrc_o $end
$var wire 1 < Branch_o $end
$var wire 1 = MemRead_o $end
$var wire 1 > MemWrite_o $end
$var wire 1 ? MemtoReg_o $end
$var wire 7 @ Opcode_i [6:0] $end
$var wire 1 A RegWrite_o $end
$var wire 1 B NoOp_i $end
$var wire 2 C ALUOp_o [1:0] $end
$upscope $end
$scope module Data_Memory $end
$var wire 1 ! clk_i $end
$var wire 32 D data_o [31:0] $end
$var wire 32 E data_i [31:0] $end
$var wire 32 F addr_i [31:0] $end
$var wire 1 G MemWrite_i $end
$var wire 1 H MemRead_i $end
$upscope $end
$scope module EX_MEM $end
$var wire 32 I ALUrslt_i [31:0] $end
$var wire 1 ! clk_i $end
$var wire 1 " rst_i $end
$var wire 5 J rd_i [4:0] $end
$var wire 1 K RegWrite_i $end
$var wire 1 L MemtoReg_i $end
$var wire 1 M MemWrite_i $end
$var wire 1 N MemRead_i $end
$var wire 32 O MUXrslt_i [31:0] $end
$var reg 32 P ALUrslt_o [31:0] $end
$var reg 32 Q MUXrslt_o [31:0] $end
$var reg 1 H MemRead_o $end
$var reg 1 G MemWrite_o $end
$var reg 1 R MemtoReg_o $end
$var reg 1 S RegWrite_o $end
$var reg 5 T rd_o [4:0] $end
$upscope $end
$scope module FU $end
$var wire 1 S MEM_RegWrite_i $end
$var wire 5 U MEM_rd_i [4:0] $end
$var wire 2 V forwardB_o [1:0] $end
$var wire 2 W forwardA_o [1:0] $end
$var wire 5 X WB_rd_i [4:0] $end
$var wire 1 Y WB_RegWrite_i $end
$var wire 5 Z EX_rs2_i [4:0] $end
$var wire 5 [ EX_rs1_i [4:0] $end
$upscope $end
$scope module Hazard_Detection $end
$var wire 1 B NoOp_o $end
$var wire 1 \ PCWrite_o $end
$var wire 1 ] Stall_o $end
$var wire 5 ^ rs1_i [4:0] $end
$var wire 5 _ rs2_i [4:0] $end
$var wire 5 ` rd_i [4:0] $end
$var wire 1 N MemRead_i $end
$upscope $end
$scope module ID_EX $end
$var wire 2 a ALUOp_i [1:0] $end
$var wire 1 ; ALUSrc_i $end
$var wire 32 b Add2_i [31:0] $end
$var wire 1 = MemRead_i $end
$var wire 1 > MemWrite_i $end
$var wire 1 ? MemtoReg_i $end
$var wire 1 A RegWrite_i $end
$var wire 1 < branch_i $end
$var wire 1 ! clk_i $end
$var wire 1 & flush_i $end
$var wire 1 " rst_i $end
$var wire 1 c predict_i $end
$var wire 32 d pc_i [31:0] $end
$var wire 32 e instr_i [31:0] $end
$var wire 32 f data2_i [31:0] $end
$var wire 32 g data1_i [31:0] $end
$var wire 32 h ImmGen_i [31:0] $end
$var reg 2 i ALUOp_o [1:0] $end
$var reg 1 j ALUSrc_o $end
$var reg 32 k Add2_o [31:0] $end
$var reg 1 l Branch_o $end
$var reg 5 m EX_rs1_o [4:0] $end
$var reg 5 n EX_rs2_o [4:0] $end
$var reg 32 o ImmGen_o [31:0] $end
$var reg 1 N MemRead_o $end
$var reg 1 M MemWrite_o $end
$var reg 1 L MemtoReg_o $end
$var reg 1 K RegWrite_o $end
$var reg 32 p data1_o [31:0] $end
$var reg 32 q data2_o [31:0] $end
$var reg 3 r func3_o [2:0] $end
$var reg 7 s func7_o [6:0] $end
$var reg 32 t pc_o [31:0] $end
$var reg 1 u predict_o $end
$var reg 5 v rd_o [4:0] $end
$upscope $end
$scope module IF_ID $end
$var wire 1 ! clk_i $end
$var wire 1 ' flush_i $end
$var wire 1 " rst_i $end
$var wire 1 ] stall_i $end
$var wire 32 w pc_i [31:0] $end
$var wire 32 x instr_i [31:0] $end
$var reg 32 y instr_o [31:0] $end
$var reg 32 z pc_o [31:0] $end
$upscope $end
$scope module ImmGen $end
$var wire 32 { instr_i [31:0] $end
$var wire 32 | imm_o [31:0] $end
$upscope $end
$scope module Instruction_Memory $end
$var wire 32 } instr_o [31:0] $end
$var wire 32 ~ addr_i [31:0] $end
$upscope $end
$scope module MEM_WB $end
$var wire 32 !" ALUrslt_i [31:0] $end
$var wire 1 R MemtoReg_i $end
$var wire 32 "" ReadData_i [31:0] $end
$var wire 1 S RegWrite_i $end
$var wire 1 ! clk_i $end
$var wire 5 #" rd_i [4:0] $end
$var wire 1 " rst_i $end
$var reg 32 $" ALUrslt_o [31:0] $end
$var reg 1 %" MemtoReg_o $end
$var reg 32 &" ReadData_o [31:0] $end
$var reg 1 Y RegWrite_o $end
$var reg 5 '" rd_o [4:0] $end
$upscope $end
$scope module MUX1 $end
$var wire 32 (" data00_i [31:0] $end
$var wire 32 )" data01_i [31:0] $end
$var wire 32 *" data10_i [31:0] $end
$var wire 32 +" data11_i [31:0] $end
$var wire 2 ," forward_i [1:0] $end
$var wire 32 -" data_o [31:0] $end
$upscope $end
$scope module MUX11 $end
$var wire 32 ." data00_i [31:0] $end
$var wire 32 /" data10_i [31:0] $end
$var wire 32 0" data11_i [31:0] $end
$var wire 2 1" forward_i [1:0] $end
$var wire 32 2" data_o [31:0] $end
$var wire 32 3" data01_i [31:0] $end
$upscope $end
$scope module MUX2 $end
$var wire 32 4" data1_i [31:0] $end
$var wire 1 j select_i $end
$var wire 32 5" data_o [31:0] $end
$var wire 32 6" data0_i [31:0] $end
$upscope $end
$scope module MUX22 $end
$var wire 32 7" data00_i [31:0] $end
$var wire 32 8" data10_i [31:0] $end
$var wire 32 9" data11_i [31:0] $end
$var wire 2 :" forward_i [1:0] $end
$var wire 32 ;" data_o [31:0] $end
$var wire 32 <" data01_i [31:0] $end
$upscope $end
$scope module MUX3 $end
$var wire 32 =" data0_i [31:0] $end
$var wire 32 >" data1_i [31:0] $end
$var wire 1 %" select_i $end
$var wire 32 ?" data_o [31:0] $end
$upscope $end
$scope module PC $end
$var wire 1 \ PCWrite_i $end
$var wire 1 ! clk_i $end
$var wire 32 @" pc_i [31:0] $end
$var wire 1 " rst_i $end
$var reg 32 A" pc_o [31:0] $end
$upscope $end
$scope module Registers $end
$var wire 5 B" RDaddr_i [4:0] $end
$var wire 32 C" RDdata_i [31:0] $end
$var wire 5 D" RS1addr_i [4:0] $end
$var wire 5 E" RS2addr_i [4:0] $end
$var wire 1 Y RegWrite_i $end
$var wire 1 ! clk_i $end
$var wire 1 " rst_i $end
$var wire 32 F" RS2data_o [31:0] $end
$var wire 32 G" RS1data_o [31:0] $end
$var integer 32 H" i [31:0] $end
$upscope $end
$scope module branch_predictor $end
$var wire 32 I" EX_ALUout_i [31:0] $end
$var wire 1 l EX_branch_i $end
$var wire 1 < branch_i $end
$var wire 1 ! clk_i $end
$var wire 1 J" flush_o $end
$var wire 1 " rst_i $end
$var wire 1 c predict_o $end
$var reg 2 K" state [1:0] $end
$upscope $end
$upscope $end
$upscope $end
$enddefinitions $end
#0
$dumpvars
bx K"
xJ"
bx I"
bx H"
bx G"
bx F"
bx E"
bx D"
bx C"
bx B"
bx A"
bx @"
bx ?"
bx >"
bx ="
bx <"
bx ;"
bx :"
b0 9"
bx 8"
bx 7"
bx 6"
bx 5"
bx 4"
bx 3"
bx 2"
bx 1"
b0 0"
bx /"
bx ."
bx -"
bx ,"
bx +"
bx *"
bx )"
bx ("
bx '"
bx &"
x%"
bx $"
bx #"
bx ""
bx !"
bx ~
bx }
bx |
bx {
bx z
bx y
bx x
bx w
bx v
xu
bx t
bx s
bx r
bx q
bx p
bx o
bx n
bx m
xl
bx k
xj
bx i
bx h
bx g
bx f
bx e
bx d
xc
bx b
bx a
bx `
bx _
bx ^
x]
x\
bx [
bx Z
xY
bx X
bx W
bx V
bx U
bx T
xS
xR
bx Q
bx P
bx O
xN
xM
xL
xK
bx J
bx I
xH
xG
bx F
bx E
bx D
bx C
xB
xA
bx @
x?
x>
x=
x<
x;
bx :
bx 9
bx0 8
bx 7
bx 6
b100 5
bx 4
bx 3
bx 2
bx 1
bx 0
bx /
bx .
bx -
bx ,
bx +
bx *
bx )
bx (
x'
x&
b11 %
b100000 $
b0 #
1"
0!
$end
#6
b0 -
b0 I
b0 I"
b11 0
b11 4
b100 -"
b100 @"
0;
0A
b0 ,
b0 ,"
b0 .
b0 5"
b0 9
b0 b
b0 )"
b0 8
b0 C
b0 a
0'
b0 O
b0 6"
b0 ;"
b0 /
b0 2"
0J"
b0 h
b0 |
0?
0<
0=
0>
0&
b0 V
b0 :"
b0 W
b0 1"
1\
b0 g
b0 G"
b0 f
b0 F"
1c
b110000010011 x
b110000010011 }
b0 *
b0 @
b0 (
b0 _
b0 E"
b0 )
b0 ^
b0 D"
0]
0B
b0 D
b0 ""
b0 3"
b0 <"
b0 ?"
b0 C"
b11 K"
b100 6
b100 ("
b0 7
b0 w
b0 ~
b0 A"
b0 :
b0 d
b0 z
b0 +
b0 e
b0 y
b0 {
0u
0l
b0 k
b0 *"
b0 t
b0 +"
b0 1
b0 s
b0 2
b0 r
b0 J
b0 `
b0 v
b0 Z
b0 n
b0 [
b0 m
b0 o
b0 4"
b0 q
b0 7"
b0 p
b0 ."
b11 3
b11 i
0j
0M
0N
0L
0K
b0 T
b0 U
b0 #"
b0 E
b0 Q
b0 F
b0 P
b0 !"
b0 /"
b0 8"
0G
0H
0R
0S
b0 X
b0 '"
b0 B"
b0 &"
b0 >"
b0 $"
b0 ="
0%"
0Y
b100000 H"
0"
#12
1"
#25
1A
1;
b10011 *
b10011 @
b10000000000110100010011 x
b10000000000110100010011 }
b1000 -"
b1000 @"
1u
b100 t
b100 +"
b0 3
b0 i
b110000010011 +
b110000010011 e
b110000010011 y
b110000010011 {
b1000 6
b1000 ("
b100 7
b100 w
b100 ~
b100 A"
b1 #
1!
#50
0!
#75
b1000 8
b100 h
b100 |
b10000000000111000010011 x
b10000000000111000010011 }
b1100 -"
b1100 @"
b100 (
b100 _
b100 E"
b1100 6
b1100 ("
b1000 7
b1000 w
b1000 ~
b1000 A"
b10000000000110100010011 +
b10000000000110100010011 e
b10000000000110100010011 y
b10000000000110100010011 {
b1100 9
b1100 b
b1100 )"
b100 :
b100 d
b100 z
b11000 J
b11000 `
b11000 v
1j
1K
b10 #
1!
#100
0!
#125
b100 -
b100 I
b100 I"
b100 .
b100 5"
b11111111111100000000011110010011 x
b11111111111100000000011110010011 }
b10000 -"
b10000 @"
b11000 T
b11000 U
b11000 #"
1S
b1100 k
b1100 *"
b1000 t
b1000 +"
b11010 J
b11010 `
b11010 v
b100 Z
b100 n
b100 o
b100 4"
b10000000000111000010011 +
b10000000000111000010011 e
b10000000000111000010011 y
b10000000000111000010011 {
b10000 9
b10000 b
b10000 )"
b1000 :
b1000 d
b1000 z
b10000 6
b10000 ("
b1100 7
b1100 w
b1100 ~
b1100 A"
b11 #
1!
#150
0!
#175
b11111111111111111111111111111110 8
b11111111111111111111111111111111 h
b11111111111111111111111111111111 |
b111110 f
b111110 F"
b11110011010000110010110011 x
b11110011010000110010110011 }
b10100 -"
b10100 @"
b11111 (
b11111 _
b11111 E"
b10100 6
b10100 ("
b10000 7
b10000 w
b10000 ~
b10000 A"
b11111111111100000000011110010011 +
b11111111111100000000011110010011 e
b11111111111100000000011110010011 y
b11111111111100000000011110010011 {
b1010 9
b1010 b
b1010 )"
b1100 :
b1100 d
b1100 z
b10000 k
b10000 *"
b1100 t
b1100 +"
b11100 J
b11100 `
b11100 v
b11010 T
b11010 U
b11010 #"
b100 F
b100 P
b100 !"
b100 /"
b100 8"
b11000 X
b11000 '"
b11000 B"
1Y
b100 #
1!
#200
0!
#225
b11111111111111111111111111111111 -
b11111111111111111111111111111111 I
b11111111111111111111111111111111 I"
b0 8
b0 h
b0 |
0;
b10 C
b10 a
b111000 f
b111000 F"
b100 g
b100 G"
b100 3"
b100 <"
b100 ?"
b100 C"
b11111111111111111111111111111111 .
b11111111111111111111111111111111 5"
b111110 O
b111110 6"
b111110 ;"
b110011 *
b110011 @
b11100 (
b11100 _
b11100 E"
b11010 )
b11010 ^
b11010 D"
b11111111111111010000110100010011 x
b11111111111111010000110100010011 }
b11000 -"
b11000 @"
b11010 X
b11010 '"
b11010 B"
b100 $"
b100 ="
b11100 T
b11100 U
b11100 #"
b1010 k
b1010 *"
b10000 t
b10000 +"
b1111 J
b1111 `
b1111 v
b11111 Z
b11111 n
b1111111 1
b1111111 s
b11111111111111111111111111111111 o
b11111111111111111111111111111111 4"
b111110 q
b111110 7"
b11110011010000110010110011 +
b11110011010000110010110011 e
b11110011010000110010110011 y
b11110011010000110010110011 {
b10000 9
b10000 b
b10000 )"
b10000 :
b10000 d
b10000 z
b11000 6
b11000 ("
b10100 7
b10100 w
b10100 ~
b10100 A"
b101 #
1!
#250
0!
#275
b101 0
b101 4
b11111111111111111111111111111110 8
b10000 -
b10000 I
b10000 I"
b11111111111111111111111111111111 h
b11111111111111111111111111111111 |
1;
b0 C
b0 a
b1 V
b1 :"
b111110 f
b111110 F"
b11001010110110000011 x
b11001010110110000011 }
b11100 -"
b11100 @"
b10011 *
b10011 @
b11111 (
b11111 _
b11111 E"
b100 O
b100 6"
b100 ;"
b100 /
b100 2"
b100 .
b100 5"
b11100 6
b11100 ("
b11000 7
b11000 w
b11000 ~
b11000 A"
b11111111111111010000110100010011 +
b11111111111111010000110100010011 e
b11111111111111010000110100010011 y
b11111111111111010000110100010011 {
b10010 9
b10010 b
b10010 )"
b10100 :
b10100 d
b10100 z
b10000 k
b10000 *"
b10100 t
b10100 +"
b11001 J
b11001 `
b11001 v
b11100 Z
b11100 n
b11010 [
b11010 m
b1 1
b1 s
b0 o
b0 4"
b111000 q
b111000 7"
b100 p
b100 ."
0j
b10 3
b10 i
b1111 T
b1111 U
b1111 #"
b111110 E
b111110 Q
b11111111111111111111111111111111 F
b11111111111111111111111111111111 P
b11111111111111111111111111111111 !"
b11111111111111111111111111111111 /"
b11111111111111111111111111111111 8"
b11100 X
b11100 '"
b11100 B"
b110 #
1!
#300
0!
#325
b11 -
b11 I
b11 I"
b11 0
b11 4
b0 8
b0 h
b0 |
b111110 O
b111110 6"
b111110 ;"
b0 V
b0 :"
1;
1?
1=
b0 f
b0 F"
b11111111111111111111111111100111 g
b11111111111111111111111111100111 G"
b11111111111111111111111111111111 3"
b11111111111111111111111111111111 <"
b11111111111111111111111111111111 ?"
b11111111111111111111111111111111 C"
b11111111111111111111111111111111 .
b11111111111111111111111111111111 5"
b11 *
b11 @
b0 (
b0 _
b0 E"
b11001 )
b11001 ^
b11001 D"
b1101111000000110000110011 x
b1101111000000110000110011 }
b100000 -"
b100000 @"
b1111 X
b1111 '"
b1111 B"
b11111111111111111111111111111111 $"
b11111111111111111111111111111111 ="
b11001 T
b11001 U
b11001 #"
b100 E
b100 Q
b10000 F
b10000 P
b10000 !"
b10000 /"
b10000 8"
b10010 k
b10010 *"
b11000 t
b11000 +"
b11010 J
b11010 `
b11010 v
b11111 Z
b11111 n
b1111111 1
b1111111 s
b11111111111111111111111111111111 o
b11111111111111111111111111111111 4"
b111110 q
b111110 7"
1j
b0 3
b0 i
b11001010110110000011 +
b11001010110110000011 e
b11001010110110000011 y
b11001010110110000011 {
b11000 9
b11000 b
b11000 )"
b11000 :
b11000 d
b11000 z
b100000 6
b100000 ("
b11100 7
b11100 w
b11100 ~
b11100 A"
b111 #
1!
#350
0!
#375
b10000 -
b10000 I
b10000 I"
0;
0\
0A
b11 C
b11 a
1B
1]
b1 W
b1 1"
0?
0=
b11111111111111111111111111100101 f
b11111111111111111111111111100101 F"
b0 g
b0 G"
b111111010000010001100011 x
b111111010000010001100011 }
b100100 -"
b100100 @"
b110011 *
b110011 @
b11011 (
b11011 _
b11011 E"
b11000 )
b11000 ^
b11000 D"
b0 .
b0 5"
b0 O
b0 6"
b0 ;"
b10000 /
b10000 2"
b10000 3"
b10000 <"
b10000 ?"
b10000 C"
b100100 6
b100100 ("
b100000 7
b100000 w
b100000 ~
b100000 A"
b1101111000000110000110011 +
b1101111000000110000110011 e
b1101111000000110000110011 y
b1101111000000110000110011 {
b11100 9
b11100 b
b11100 )"
b11100 :
b11100 d
b11100 z
b11000 k
b11000 *"
b11100 t
b11100 +"
b11011 J
b11011 `
b11011 v
b0 Z
b0 n
b11001 [
b11001 m
b0 1
b0 s
b10 2
b10 r
b0 o
b0 4"
b0 q
b0 7"
b11111111111111111111111111100111 p
b11111111111111111111111111100111 ."
1N
1L
b11010 T
b11010 U
b11010 #"
b111110 E
b111110 Q
b11 F
b11 P
b11 !"
b11 /"
b11 8"
b11001 X
b11001 '"
b11001 B"
b10000 $"
b10000 ="
b1000 #
1!
#400
0!
#425
b10000 -
b10000 I
b10000 I"
b10 C
b10 a
b0 /
b0 2"
b0 W
b0 1"
1A
b10 V
b10 :"
b10000 .
b10000 5"
1\
b11 3"
b11 <"
b11 ?"
b11 C"
b11101 D
b11101 ""
b10000 O
b10000 6"
b10000 ;"
0]
0B
b11010 X
b11010 '"
b11010 B"
b11 $"
b11 ="
b11011 T
b11011 U
b11011 #"
b0 E
b0 Q
b10000 F
b10000 P
b10000 !"
b10000 /"
b10000 8"
1H
1R
b11100 k
b11100 *"
b100000 t
b100000 +"
b11000 J
b11000 `
b11000 v
b11011 Z
b11011 n
b11000 [
b11000 m
b0 2
b0 r
b11111111111111111111111111100101 q
b11111111111111111111111111100101 7"
b0 p
b0 ."
0j
b11 3
b11 i
0N
0L
0K
b1001 #
1!
#450
0!
#475
b11101 -
b11101 I
b11101 I"
b1 ,
b1 ,"
b11101 .
b11101 5"
b1000 8
0A
1'
b11101 O
b11101 6"
b11101 ;"
b100 h
b100 |
1J"
b1 C
b1 a
1<
b11 g
b11 G"
b1 V
b1 :"
b11111111111111111111111111111111 f
b11111111111111111111111111111111 F"
b11111110000000000000011011100011 x
b11111110000000000000011011100011 }
b101000 -"
b101000 @"
b1100011 *
b1100011 @
b1111 (
b1111 _
b1111 E"
b11010 )
b11010 ^
b11010 D"
b0 D
b0 ""
b11101 3"
b11101 <"
b11101 ?"
b11101 C"
b101000 6
b101000 ("
b100100 7
b100100 w
b100100 ~
b100100 A"
b111111010000010001100011 +
b111111010000010001100011 e
b111111010000010001100011 y
b111111010000010001100011 {
b101000 9
b101000 b
b101000 )"
b100000 :
b100000 d
b100000 z
b10 3
b10 i
1K
b11000 T
b11000 U
b11000 #"
b10000 E
b10000 Q
0H
0R
0S
b11011 X
b11011 '"
b11011 B"
b11101 &"
b11101 >"
b10000 $"
b10000 ="
1%"
b1010 #
1!
#500
0!
#525
1'
b100 0
b100 4
b100 -
b100 I
b100 I"
b11111111111111111111111111111111 .
b11111111111111111111111111111111 5"
b0 8
b0 C
b0 a
b11111111111111111111111111111111 O
b11111111111111111111111111111111 6"
b11111111111111111111111111111111 ;"
b11 ,
b11 ,"
b0 V
b0 :"
b0 h
b0 |
0J"
1&
0<
b0 f
b0 F"
b0 g
b0 G"
b100100 -"
b100100 @"
b10000 3"
b10000 <"
b10000 ?"
b10000 C"
b11 /
b11 2"
b0 *
b0 @
b0 (
b0 _
b0 E"
b0 )
b0 ^
b0 D"
b1100000000010111000100011 x
b1100000000010111000100011 }
b11000 X
b11000 '"
b11000 B"
b0 &"
b0 >"
0%"
0Y
b11101 E
b11101 Q
b11101 F
b11101 P
b11101 !"
b11101 /"
b11101 8"
1S
1l
b101000 k
b101000 *"
b100100 t
b100100 +"
b1000 J
b1000 `
b1000 v
b1111 Z
b1111 n
b11010 [
b11010 m
b100 o
b100 4"
b11111111111111111111111111111111 q
b11111111111111111111111111111111 7"
b11 p
b11 ."
b1 3
b1 i
0K
b0 +
b0 e
b0 y
b0 {
b100100 9
b100100 b
b100100 )"
b100100 :
b100100 d
b100100 z
b101100 6
b101100 ("
b101000 7
b101000 w
b101000 ~
b101000 A"
b1011 #
1!
#550
0!
#575
b0 -
b0 I
b0 I"
b11 0
b11 4
b0 ,
b0 ,"
0'
b101000 -"
b101000 @"
0&
b0 .
b0 5"
b11111110000000000000011011100011 x
b11111110000000000000011011100011 }
b0 O
b0 6"
b0 ;"
b0 /
b0 2"
b11101 3"
b11101 <"
b11101 ?"
b11101 C"
b10 K"
b101000 6
b101000 ("
b100100 7
b100100 w
b100100 ~
b100100 A"
b101000 9
b101000 b
b101000 )"
b101000 :
b101000 d
b101000 z
0l
b100100 k
b100100 *"
b101000 t
b101000 +"
b0 J
b0 `
b0 v
b0 Z
b0 n
b0 [
b0 m
b0 o
b0 4"
b0 q
b0 7"
b0 p
b0 ."
b0 3
b0 i
b1000 T
b1000 U
b1000 #"
b11111111111111111111111111111111 E
b11111111111111111111111111111111 Q
b100 F
b100 P
b100 !"
b100 /"
b100 8"
0S
b11101 $"
b11101 ="
1Y
b1100 #
1!
#600
0!
#625
b1 ,
b1 ,"
b11111111111111111111111111101100 8
1'
b1 C
b1 a
b11111111111111111111111111110110 h
b11111111111111111111111111110110 |
1J"
1<
b100 3"
b100 <"
b100 ?"
b100 C"
b1100011 *
b1100011 @
b1100000000010111000100011 x
b1100000000010111000100011 }
b10000 -"
b10000 @"
b1000 X
b1000 '"
b1000 B"
b100 $"
b100 ="
0Y
b0 T
b0 U
b0 #"
b0 E
b0 Q
b0 F
b0 P
b0 !"
b0 /"
b0 8"
b101000 k
b101000 *"
b101100 t
b101100 +"
b11111110000000000000011011100011 +
b11111110000000000000011011100011 e
b11111110000000000000011011100011 y
b11111110000000000000011011100011 {
b10000 9
b10000 b
b10000 )"
b100100 :
b100100 d
b100100 z
b101100 6
b101100 ("
b101000 7
b101000 w
b101000 ~
b101000 A"
b1101 #
1!
#650
0!
#675
b100 0
b100 4
b0 8
0'
b0 C
b0 a
b0 h
b0 |
0J"
0<
b10100 -"
b10100 @"
b0 ,
b0 ,"
b11110011010000110010110011 x
b11110011010000110010110011 }
b0 *
b0 @
b0 3"
b0 <"
b0 ?"
b0 C"
b10100 6
b10100 ("
b10000 7
b10000 w
b10000 ~
b10000 A"
b0 +
b0 e
b0 y
b0 {
b101000 9
b101000 b
b101000 )"
b101000 :
b101000 d
b101000 z
1l
b10000 k
b10000 *"
b101000 t
b101000 +"
b1101 J
b1101 `
b1101 v
b1111111 1
b1111111 s
b11111111111111111111111111110110 o
b11111111111111111111111111110110 4"
b1 3
b1 i
b0 X
b0 '"
b0 B"
b0 $"
b0 ="
b1110 #
1!
#700
0!
#725
b11 0
b11 4
1A
b10 C
b10 a
b100 f
b100 F"
b11 g
b11 G"
b110011 *
b110011 @
b11100 (
b11100 _
b11100 E"
b11010 )
b11010 ^
b11010 D"
b11111111111111010000110100010011 x
b11111111111111010000110100010011 }
b11000 -"
b11000 @"
b1101 T
b1101 U
b1101 #"
0l
b101000 k
b101000 *"
b101100 t
b101100 +"
b0 J
b0 `
b0 v
b0 1
b0 s
b0 o
b0 4"
b0 3
b0 i
b11110011010000110010110011 +
b11110011010000110010110011 e
b11110011010000110010110011 y
b11110011010000110010110011 {
b10000 9
b10000 b
b10000 )"
b10000 :
b10000 d
b10000 z
b11000 6
b11000 ("
b10100 7
b10100 w
b10100 ~
b10100 A"
b11 K"
b1111 #
1!
#750
0!
#775
b101 0
b101 4
b11111111111111111111111111111110 8
b1100 -
b1100 I
b1100 I"
b11111111111111111111111111111111 h
b11111111111111111111111111111111 |
1;
b0 C
b0 a
b111110 f
b111110 F"
b100 .
b100 5"
b11001010110110000011 x
b11001010110110000011 }
b11100 -"
b11100 @"
b10011 *
b10011 @
b11111 (
b11111 _
b11111 E"
b100 O
b100 6"
b100 ;"
b11 /
b11 2"
b11100 6
b11100 ("
b11000 7
b11000 w
b11000 ~
b11000 A"
b11111111111111010000110100010011 +
b11111111111111010000110100010011 e
b11111111111111010000110100010011 y
b11111111111111010000110100010011 {
b10010 9
b10010 b
b10010 )"
b10100 :
b10100 d
b10100 z
b10000 k
b10000 *"
b10100 t
b10100 +"
b11001 J
b11001 `
b11001 v
b11100 Z
b11100 n
b11010 [
b11010 m
b1 1
b1 s
b100 q
b100 7"
b11 p
b11 ."
b10 3
b10 i
1K
b0 T
b0 U
b0 #"
b1101 X
b1101 '"
b1101 B"
b10000 #
1!
#800
0!
#825
b10 -
b10 I
b10 I"
b11 0
b11 4
b0 8
b0 h
b0 |
1;
1?
1=
b0 f
b0 F"
b10000 g
b10000 G"
b111110 O
b111110 6"
b111110 ;"
b11111111111111111111111111111111 .
b11111111111111111111111111111111 5"
b11 *
b11 @
b0 (
b0 _
b0 E"
b11001 )
b11001 ^
b11001 D"
b1101111000000110000110011 x
b1101111000000110000110011 }
b100000 -"
b100000 @"
b0 X
b0 '"
b0 B"
b11001 T
b11001 U
b11001 #"
b100 E
b100 Q
b1100 F
b1100 P
b1100 !"
b1100 /"
b1100 8"
1S
b10010 k
b10010 *"
b11000 t
b11000 +"
b11010 J
b11010 `
b11010 v
b11111 Z
b11111 n
b1111111 1
b1111111 s
b11111111111111111111111111111111 o
b11111111111111111111111111111111 4"
b111110 q
b111110 7"
1j
b0 3
b0 i
b11001010110110000011 +
b11001010110110000011 e
b11001010110110000011 y
b11001010110110000011 {
b11000 9
b11000 b
b11000 )"
b11000 :
b11000 d
b11000 z
b100000 6
b100000 ("
b11100 7
b11100 w
b11100 ~
b11100 A"
b10001 #
1!
#850
0!
#875
b1100 -
b1100 I
b1100 I"
0;
0\
0A
b11 C
b11 a
1B
1]
b1 W
b1 1"
0?
0=
b11101 f
b11101 F"
b11101 g
b11101 G"
b111111010000010001100011 x
b111111010000010001100011 }
b100100 -"
b100100 @"
b110011 *
b110011 @
b11011 (
b11011 _
b11011 E"
b11000 )
b11000 ^
b11000 D"
b0 .
b0 5"
b0 O
b0 6"
b0 ;"
b1100 /
b1100 2"
b1100 3"
b1100 <"
b1100 ?"
b1100 C"
b100100 6
b100100 ("
b100000 7
b100000 w
b100000 ~
b100000 A"
b1101111000000110000110011 +
b1101111000000110000110011 e
b1101111000000110000110011 y
b1101111000000110000110011 {
b11100 9
b11100 b
b11100 )"
b11100 :
b11100 d
b11100 z
b11000 k
b11000 *"
b11100 t
b11100 +"
b11011 J
b11011 `
b11011 v
b0 Z
b0 n
b11001 [
b11001 m
b0 1
b0 s
b10 2
b10 r
b0 o
b0 4"
b0 q
b0 7"
b10000 p
b10000 ."
1N
1L
b11010 T
b11010 U
b11010 #"
b111110 E
b111110 Q
b10 F
b10 P
b10 !"
b10 /"
b10 8"
b11001 X
b11001 '"
b11001 B"
b1100 $"
b1100 ="
1Y
b10010 #
1!
#900
0!
#925
b101001 -
b101001 I
b101001 I"
b10 C
b10 a
b11101 /
b11101 2"
b0 W
b0 1"
1A
b10 V
b10 :"
b1100 .
b1100 5"
1\
b10 3"
b10 <"
b10 ?"
b10 C"
b10010 D
b10010 ""
b1100 O
b1100 6"
b1100 ;"
0]
0B
b11010 X
b11010 '"
b11010 B"
b10 $"
b10 ="
b11011 T
b11011 U
b11011 #"
b0 E
b0 Q
b1100 F
b1100 P
b1100 !"
b1100 /"
b1100 8"
1H
1R
b11100 k
b11100 *"
b100000 t
b100000 +"
b11000 J
b11000 `
b11000 v
b11011 Z
b11011 n
b11000 [
b11000 m
b0 2
b0 r
b11101 q
b11101 7"
b11101 p
b11101 ."
0j
b11 3
b11 i
0N
0L
0K
b10011 #
1!
#950
0!
#975
b101111 -
b101111 I
b101111 I"
b1 ,
b1 ,"
b1000 8
0A
1'
b10010 .
b10010 5"
b100 h
b100 |
1J"
b1 C
b1 a
b10010 O
b10010 6"
b10010 ;"
1<
b10 g
b10 G"
b1 V
b1 :"
b11111111111111111111111111111111 f
b11111111111111111111111111111111 F"
b11111110000000000000011011100011 x
b11111110000000000000011011100011 }
b101000 -"
b101000 @"
b1100011 *
b1100011 @
b1111 (
b1111 _
b1111 E"
b11010 )
b11010 ^
b11010 D"
b0 D
b0 ""
b10010 3"
b10010 <"
b10010 ?"
b10010 C"
b101000 6
b101000 ("
b100100 7
b100100 w
b100100 ~
b100100 A"
b111111010000010001100011 +
b111111010000010001100011 e
b111111010000010001100011 y
b111111010000010001100011 {
b101000 9
b101000 b
b101000 )"
b100000 :
b100000 d
b100000 z
b10 3
b10 i
1K
b11000 T
b11000 U
b11000 #"
b1100 E
b1100 Q
b101001 F
b101001 P
b101001 !"
b101001 /"
b101001 8"
0H
0R
0S
b11011 X
b11011 '"
b11011 B"
b10010 &"
b10010 >"
b1100 $"
b1100 ="
1%"
b10100 #
1!
#1000
0!
