lab2/log/waveform_4.vcd
$date
	Sun Nov 26 03:54:26 2023
$end
$version
	Icarus Verilog
$end
$timescale
	1s
$end
$scope module TestBench $end
$var reg 1 ! Clk $end
$var reg 1 " Reset $end
$var integer 32 # counter [31:0] $end
$var integer 32 $ flush [31:0] $end
$var integer 32 % i [31:0] $end
$var integer 32 & outfile [31:0] $end
$var integer 32 ' stall [31:0] $end
$scope module CPU $end
$var wire 1 ( ID_FlushIF $end
$var wire 1 ! clk_i $end
$var wire 1 " rst_i $end
$var wire 5 ) rs2 [4:0] $end
$var wire 5 * rs1 [4:0] $end
$var wire 7 + opcode [6:0] $end
$var wire 32 , instruction [31:0] $end
$scope module ALU $end
$var wire 32 - data2_i [31:0] $end
$var wire 32 . data1_i [31:0] $end
$var wire 32 / ALUout_o [31:0] $end
$var wire 3 0 ALUCtrl_i [2:0] $end
$upscope $end
$scope module ALU_Control $end
$var wire 7 1 func7_i [6:0] $end
$var wire 3 2 func3_i [2:0] $end
$var wire 2 3 ALUOp_i [1:0] $end
$var wire 3 4 ALUCtrl_o [2:0] $end
$upscope $end
$scope module Add1 $end
$var wire 32 5 data2_i [31:0] $end
$var wire 32 6 data_o [31:0] $end
$var wire 32 7 data1_i [31:0] $end
$upscope $end
$scope module Add2 $end
$var wire 32 8 data1_i [31:0] $end
$var wire 32 9 data_o [31:0] $end
$var wire 32 : data2_i [31:0] $end
$upscope $end
$scope module Control $end
$var wire 1 ; ALUSrc_o $end
$var wire 1 < Branch_o $end
$var wire 1 = MemRead_o $end
$var wire 1 > MemWrite_o $end
$var wire 1 ? MemtoReg_o $end
$var wire 7 @ Opcode_i [6:0] $end
$var wire 1 A RegWrite_o $end
$var wire 1 B NoOp_i $end
$var wire 2 C ALUOp_o [1:0] $end
$upscope $end
$scope module Data_Memory $end
$var wire 1 ! clk_i $end
$var wire 32 D data_o [31:0] $end
$var wire 32 E data_i [31:0] $end
$var wire 32 F addr_i [31:0] $end
$var wire 1 G MemWrite_i $end
$var wire 1 H MemRead_i $end
$upscope $end
$scope module EX_MEM $end
$var wire 32 I ALUrslt_i [31:0] $end
$var wire 1 ! clk_i $end
$var wire 1 " rst_i $end
$var wire 5 J rd_i [4:0] $end
$var wire 1 K RegWrite_i $end
$var wire 1 L MemtoReg_i $end
$var wire 1 M MemWrite_i $end
$var wire 1 N MemRead_i $end
$var wire 32 O MUXrslt_i [31:0] $end
$var reg 32 P ALUrslt_o [31:0] $end
$var reg 32 Q MUXrslt_o [31:0] $end
$var reg 1 H MemRead_o $end
$var reg 1 G MemWrite_o $end
$var reg 1 R MemtoReg_o $end
$var reg 1 S RegWrite_o $end
$var reg 5 T rd_o [4:0] $end
$upscope $end
$scope module FU $end
$var wire 1 S MEM_RegWrite_i $end
$var wire 5 U MEM_rd_i [4:0] $end
$var wire 2 V forwardB_o [1:0] $end
$var wire 2 W forwardA_o [1:0] $end
$var wire 5 X WB_rd_i [4:0] $end
$var wire 1 Y WB_RegWrite_i $end
$var wire 5 Z EX_rs2_i [4:0] $end
$var wire 5 [ EX_rs1_i [4:0] $end
$upscope $end
$scope module Hazard_Detection $end
$var wire 1 B NoOp_o $end
$var wire 1 \ PCWrite_o $end
$var wire 1 ] Stall_o $end
$var wire 5 ^ rs1_i [4:0] $end
$var wire 5 _ rs2_i [4:0] $end
$var wire 5 ` rd_i [4:0] $end
$var wire 1 N MemRead_i $end
$upscope $end
$scope module ID_EX $end
$var wire 2 a ALUOp_i [1:0] $end
$var wire 1 ; ALUSrc_i $end
$var wire 1 = MemRead_i $end
$var wire 1 > MemWrite_i $end
$var wire 1 ? MemtoReg_i $end
$var wire 1 A RegWrite_i $end
$var wire 1 ! clk_i $end
$var wire 1 " rst_i $end
$var wire 32 b instr_i [31:0] $end
$var wire 32 c data2_i [31:0] $end
$var wire 32 d data1_i [31:0] $end
$var wire 32 e ImmGen_i [31:0] $end
$var reg 2 f ALUOp_o [1:0] $end
$var reg 1 g ALUSrc_o $end
$var reg 5 h EX_rs1_o [4:0] $end
$var reg 5 i EX_rs2_o [4:0] $end
$var reg 32 j ImmGen_o [31:0] $end
$var reg 1 N MemRead_o $end
$var reg 1 M MemWrite_o $end
$var reg 1 L MemtoReg_o $end
$var reg 1 K RegWrite_o $end
$var reg 32 k data1_o [31:0] $end
$var reg 32 l data2_o [31:0] $end
$var reg 3 m func3_o [2:0] $end
$var reg 7 n func7_o [6:0] $end
$var reg 5 o rd_o [4:0] $end
$upscope $end
$scope module IF_ID $end
$var wire 1 ! clk_i $end
$var wire 1 ( flush_i $end
$var wire 1 " rst_i $end
$var wire 1 ] stall_i $end
$var wire 32 p pc_i [31:0] $end
$var wire 32 q instr_i [31:0] $end
$var reg 32 r instr_o [31:0] $end
$var reg 32 s pc_o [31:0] $end
$upscope $end
$scope module ImmGen $end
$var wire 32 t instr_i [31:0] $end
$var wire 32 u imm_o [31:0] $end
$upscope $end
$scope module Instruction_Memory $end
$var wire 32 v instr_o [31:0] $end
$var wire 32 w addr_i [31:0] $end
$upscope $end
$scope module MEM_WB $end
$var wire 32 x ALUrslt_i [31:0] $end
$var wire 1 R MemtoReg_i $end
$var wire 32 y ReadData_i [31:0] $end
$var wire 1 S RegWrite_i $end
$var wire 1 ! clk_i $end
$var wire 5 z rd_i [4:0] $end
$var wire 1 " rst_i $end
$var reg 32 { ALUrslt_o [31:0] $end
$var reg 1 | MemtoReg_o $end
$var reg 32 } ReadData_o [31:0] $end
$var reg 1 Y RegWrite_o $end
$var reg 5 ~ rd_o [4:0] $end
$upscope $end
$scope module MUX1 $end
$var wire 32 !" data0_i [31:0] $end
$var wire 32 "" data1_i [31:0] $end
$var wire 1 ( select_i $end
$var wire 32 #" data_o [31:0] $end
$upscope $end
$scope module MUX11 $end
$var wire 32 $" data00_i [31:0] $end
$var wire 32 %" data10_i [31:0] $end
$var wire 2 &" forward_i [1:0] $end
$var wire 32 '" data_o [31:0] $end
$var wire 32 (" data01_i [31:0] $end
$upscope $end
$scope module MUX2 $end
$var wire 32 )" data1_i [31:0] $end
$var wire 1 g select_i $end
$var wire 32 *" data_o [31:0] $end
$var wire 32 +" data0_i [31:0] $end
$upscope $end
$scope module MUX22 $end
$var wire 32 ," data00_i [31:0] $end
$var wire 32 -" data10_i [31:0] $end
$var wire 2 ." forward_i [1:0] $end
$var wire 32 /" data_o [31:0] $end
$var wire 32 0" data01_i [31:0] $end
$upscope $end
$scope module MUX3 $end
$var wire 32 1" data0_i [31:0] $end
$var wire 32 2" data1_i [31:0] $end
$var wire 1 | select_i $end
$var wire 32 3" data_o [31:0] $end
$upscope $end
$scope module PC $end
$var wire 1 \ PCWrite_i $end
$var wire 1 ! clk_i $end
$var wire 32 4" pc_i [31:0] $end
$var wire 1 " rst_i $end
$var reg 32 5" pc_o [31:0] $end
$upscope $end
$scope module Registers $end
$var wire 5 6" RDaddr_i [4:0] $end
$var wire 32 7" RDdata_i [31:0] $end
$var wire 5 8" RS1addr_i [4:0] $end
$var wire 5 9" RS2addr_i [4:0] $end
$var wire 1 Y RegWrite_i $end
$var wire 1 ! clk_i $end
$var wire 1 " rst_i $end
$var wire 32 :" RS2data_o [31:0] $end
$var wire 32 ;" RS1data_o [31:0] $end
$var integer 32 <" i [31:0] $end
$upscope $end
$upscope $end
$upscope $end
$enddefinitions $end
#0
$dumpvars
bx <"
bx ;"
bx :"
bx 9"
bx 8"
bx 7"
bx 6"
bx 5"
bx 4"
bx 3"
bx 2"
bx 1"
bx 0"
bx /"
bx ."
bx -"
bx ,"
bx +"
bx *"
bx )"
bx ("
bx '"
bx &"
bx %"
bx $"
bx #"
bx ""
bx !"
bx ~
bx }
x|
bx {
bx z
bx y
bx x
bx w
bx v
bx u
bx t
bx s
bx r
bx q
bx p
bx o
bx n
bx m
bx l
bx k
bx j
bx i
bx h
xg
bx f
bx e
bx d
bx c
bx b
bx a
bx `
bx _
bx ^
x]
x\
bx [
bx Z
xY
bx X
bx W
bx V
bx U
bx T
xS
xR
bx Q
bx P
bx O
xN
xM
xL
xK
bx J
bx I
xH
xG
bx F
bx E
bx D
bx C
xB
xA
bx @
x?
x>
x=
x<
x;
bx :
bx 9
bx0 8
bx 7
bx 6
b100 5
bx 4
bx 3
bx 2
bx 1
bx 0
bx /
bx .
bx -
bx ,
bx +
bx *
bx )
x(
b0 '
b11 &
b100000 %
b0 $
b0 #
1"
0!
$end
#6
b0 /
b0 I
b11 0
b11 4
0;
0A
b0 -
b0 *"
b100 #"
b100 4"
b0 9
b0 ""
b0 8
b0 C
b0 a
b0 O
b0 +"
b0 /"
b0 .
b0 '"
0(
b0 e
b0 u
0?
0<
0=
0>
b0 V
b0 ."
b0 W
b0 &"
1\
b0 d
b0 ;"
b0 c
b0 :"
b110000010011 q
b110000010011 v
b0 +
b0 @
b0 )
b0 _
b0 9"
b0 *
b0 ^
b0 8"
0]
0B
b0 D
b0 y
b0 ("
b0 0"
b0 3"
b0 7"
b100 6
b100 !"
b0 7
b0 p
b0 w
b0 5"
b0 :
b0 s
b0 ,
b0 b
b0 r
b0 t
b0 1
b0 n
b0 2
b0 m
b0 J
b0 `
b0 o
b0 Z
b0 i
b0 [
b0 h
b0 j
b0 )"
b0 l
b0 ,"
b0 k
b0 $"
b11 3
b11 f
0g
0M
0N
0L
0K
b0 T
b0 U
b0 z
b0 E
b0 Q
b0 F
b0 P
b0 x
b0 %"
b0 -"
0G
0H
0R
0S
b0 X
b0 ~
b0 6"
b0 }
b0 2"
b0 {
b0 1"
0|
0Y
b100000 <"
0"
#12
1"
#25
1A
1;
b10011 +
b10011 @
b10000000000110100010011 q
b10000000000110100010011 v
b1000 #"
b1000 4"
b0 3
b0 f
b110000010011 ,
b110000010011 b
b110000010011 r
b110000010011 t
b1000 6
b1000 !"
b100 7
b100 p
b100 w
b100 5"
b1 #
1!
#50
0!
#75
b1000 8
b100 e
b100 u
b10000000000111000010011 q
b10000000000111000010011 v
b1100 #"
b1100 4"
b100 )
b100 _
b100 9"
b1100 6
b1100 !"
b1000 7
b1000 p
b1000 w
b1000 5"
b10000000000110100010011 ,
b10000000000110100010011 b
b10000000000110100010011 r
b10000000000110100010011 t
b1100 9
b1100 ""
b100 :
b100 s
b11000 J
b11000 `
b11000 o
1g
1K
b10 #
1!
#100
0!
#125
b100 /
b100 I
b100 -
b100 *"
b11111111111100000000011110010011 q
b11111111111100000000011110010011 v
b10000 #"
b10000 4"
b11000 T
b11000 U
b11000 z
1S
b11010 J
b11010 `
b11010 o
b100 Z
b100 i
b100 j
b100 )"
b10000000000111000010011 ,
b10000000000111000010011 b
b10000000000111000010011 r
b10000000000111000010011 t
b10000 9
b10000 ""
b1000 :
b1000 s
b10000 6
b10000 !"
b1100 7
b1100 p
b1100 w
b1100 5"
b11 #
1!
#150
0!
#175
b11111111111111111111111111111110 8
b11111111111111111111111111111111 e
b11111111111111111111111111111111 u
b111110 c
b111110 :"
b11110011010000110010110011 q
b11110011010000110010110011 v
b10100 #"
b10100 4"
b11111 )
b11111 _
b11111 9"
b10100 6
b10100 !"
b10000 7
b10000 p
b10000 w
b10000 5"
b11111111111100000000011110010011 ,
b11111111111100000000011110010011 b
b11111111111100000000011110010011 r
b11111111111100000000011110010011 t
b1010 9
b1010 ""
b1100 :
b1100 s
b11100 J
b11100 `
b11100 o
b11010 T
b11010 U
b11010 z
b100 F
b100 P
b100 x
b100 %"
b100 -"
b11000 X
b11000 ~
b11000 6"
1Y
b100 #
1!
#200
0!
#225
b11111111111111111111111111111111 /
b11111111111111111111111111111111 I
b1111000 8
b111100 e
b111100 u
0;
b10 C
b10 a
b111000 c
b111000 :"
b100 d
b100 ;"
b100 ("
b100 0"
b100 3"
b100 7"
b11111111111111111111111111111111 -
b11111111111111111111111111111111 *"
b111110 O
b111110 +"
b111110 /"
b110011 +
b110011 @
b11100 )
b11100 _
b11100 9"
b11010 *
b11010 ^
b11010 8"
b11111111111111010000110100010011 q
b11111111111111010000110100010011 v
b11000 #"
b11000 4"
b11010 X
b11010 ~
b11010 6"
b100 {
b100 1"
b11100 T
b11100 U
b11100 z
b1111 J
b1111 `
b1111 o
b11111 Z
b11111 i
b1111111 1
b1111111 n
b11111111111111111111111111111111 j
b11111111111111111111111111111111 )"
b111110 l
b111110 ,"
b11110011010000110010110011 ,
b11110011010000110010110011 b
b11110011010000110010110011 r
b11110011010000110010110011 t
b10001000 9
b10001000 ""
b10000 :
b10000 s
b11000 6
b11000 !"
b10100 7
b10100 p
b10100 w
b10100 5"
b101 #
1!
#250
0!
#275
b101 0
b101 4
b10000 /
b10000 I
b11111111111111111111111111111110 8
b11111111111111111111111111111111 e
b11111111111111111111111111111111 u
1;
b0 C
b0 a
b1 V
b1 ."
b111110 c
b111110 :"
b11001010110110000011 q
b11001010110110000011 v
b11100 #"
b11100 4"
b10011 +
b10011 @
b11111 )
b11111 _
b11111 9"
b100 O
b100 +"
b100 /"
b100 .
b100 '"
b100 -
b100 *"
b11100 6
b11100 !"
b11000 7
b11000 p
b11000 w
b11000 5"
b11111111111111010000110100010011 ,
b11111111111111010000110100010011 b
b11111111111111010000110100010011 r
b11111111111111010000110100010011 t
b10010 9
b10010 ""
b10100 :
b10100 s
b11001 J
b11001 `
b11001 o
b11100 Z
b11100 i
b11010 [
b11010 h
b1 1
b1 n
b111100 j
b111100 )"
b111000 l
b111000 ,"
b100 k
b100 $"
0g
b10 3
b10 f
b1111 T
b1111 U
b1111 z
b111110 E
b111110 Q
b11111111111111111111111111111111 F
b11111111111111111111111111111111 P
b11111111111111111111111111111111 x
b11111111111111111111111111111111 %"
b11111111111111111111111111111111 -"
b11100 X
b11100 ~
b11100 6"
b110 #
1!
#300
0!
#325
b11 /
b11 I
b11 0
b11 4
b0 8
b111110 O
b111110 +"
b111110 /"
b0 V
b0 ."
b0 e
b0 u
1;
1?
1=
b0 c
b0 :"
b11111111111111111111111111100111 d
b11111111111111111111111111100111 ;"
b11111111111111111111111111111111 ("
b11111111111111111111111111111111 0"
b11111111111111111111111111111111 3"
b11111111111111111111111111111111 7"
b11111111111111111111111111111111 -
b11111111111111111111111111111111 *"
b11 +
b11 @
b0 )
b0 _
b0 9"
b11001 *
b11001 ^
b11001 8"
b1101111000000110000110011 q
b1101111000000110000110011 v
b100000 #"
b100000 4"
b1111 X
b1111 ~
b1111 6"
b11111111111111111111111111111111 {
b11111111111111111111111111111111 1"
b11001 T
b11001 U
b11001 z
b100 E
b100 Q
b10000 F
b10000 P
b10000 x
b10000 %"
b10000 -"
b11010 J
b11010 `
b11010 o
b11111 Z
b11111 i
b1111111 1
b1111111 n
b11111111111111111111111111111111 j
b11111111111111111111111111111111 )"
b111110 l
b111110 ,"
1g
b0 3
b0 f
b11001010110110000011 ,
b11001010110110000011 b
b11001010110110000011 r
b11001010110110000011 t
b11000 9
b11000 ""
b11000 :
b11000 s
b100000 6
b100000 !"
b11100 7
b11100 p
b11100 w
b11100 5"
b111 #
1!
#350
0!
#375
b10000 /
b10000 I
b110110 8
0;
0\
b11011 e
b11011 u
0A
b11 C
b11 a
1B
1]
b1 W
b1 &"
0?
0=
b11111111111111111111111111100101 c
b11111111111111111111111111100101 :"
b0 d
b0 ;"
b111111010000010001100011 q
b111111010000010001100011 v
b100100 #"
b100100 4"
b110011 +
b110011 @
b11011 )
b11011 _
b11011 9"
b11000 *
b11000 ^
b11000 8"
b0 -
b0 *"
b0 O
b0 +"
b0 /"
b10000 .
b10000 '"
b10000 ("
b10000 0"
b10000 3"
b10000 7"
b100100 6
b100100 !"
b100000 7
b100000 p
b100000 w
b100000 5"
b1101111000000110000110011 ,
b1101111000000110000110011 b
b1101111000000110000110011 r
b1101111000000110000110011 t
b1010010 9
b1010010 ""
b11100 :
b11100 s
b11011 J
b11011 `
b11011 o
b0 Z
b0 i
b11001 [
b11001 h
b0 1
b0 n
b10 2
b10 m
b0 j
b0 )"
b0 l
b0 ,"
b11111111111111111111111111100111 k
b11111111111111111111111111100111 $"
1N
1L
b11010 T
b11010 U
b11010 z
b111110 E
b111110 Q
b11 F
b11 P
b11 x
b11 %"
b11 -"
b11001 X
b11001 ~
b11001 6"
b10000 {
b10000 1"
b1000 #
1!
#400
0!
#425
b10000 /
b10000 I
b10 C
b10 a
b0 .
b0 '"
b0 W
b0 &"
1A
b10 V
b10 ."
b10000 -
b10000 *"
1\
b11 ("
b11 0"
b11 3"
b11 7"
b11101 D
b11101 y
b10000 O
b10000 +"
b10000 /"
0]
0B
b11010 X
b11010 ~
b11010 6"
b11 {
b11 1"
b11011 T
b11011 U
b11011 z
b0 E
b0 Q
b10000 F
b10000 P
b10000 x
b10000 %"
b10000 -"
1H
1R
b11000 J
b11000 `
b11000 o
b11011 Z
b11011 i
b11000 [
b11000 h
b0 2
b0 m
b11011 j
b11011 )"
b11111111111111111111111111100101 l
b11111111111111111111111111100101 ,"
b0 k
b0 $"
0g
b11 3
b11 f
0N
0L
0K
b1001 #
b1 '
1!
#450
0!
#475
b11101 /
b11101 I
b11101 -
b11101 *"
b1000 8
0A
b11101 O
b11101 +"
b11101 /"
b100 e
b100 u
b1 C
b1 a
1<
b11 d
b11 ;"
b1 V
b1 ."
b11111111111111111111111111111111 c
b11111111111111111111111111111111 :"
b11111110000000000000011011100011 q
b11111110000000000000011011100011 v
b101000 #"
b101000 4"
b1100011 +
b1100011 @
b1111 )
b1111 _
b1111 9"
b11010 *
b11010 ^
b11010 8"
b0 D
b0 y
b11101 ("
b11101 0"
b11101 3"
b11101 7"
b101000 6
b101000 !"
b100100 7
b100100 p
b100100 w
b100100 5"
b111111010000010001100011 ,
b111111010000010001100011 b
b111111010000010001100011 r
b111111010000010001100011 t
b101000 9
b101000 ""
b100000 :
b100000 s
b10 3
b10 f
1K
b11000 T
b11000 U
b11000 z
b10000 E
b10000 Q
0H
0R
0S
b11011 X
b11011 ~
b11011 6"
b11101 }
b11101 2"
b10000 {
b10000 1"
1|
b1010 #
1!
#500
0!
#525
b111 0
b111 4
b0 /
b0 I
b11111111111111111111111111111111 -
b11111111111111111111111111111111 *"
b11111111111111111111111111101100 8
b11111111111111111111111111111111 O
b11111111111111111111111111111111 +"
b11111111111111111111111111111111 /"
b0 V
b0 ."
b11111111111111111111111111110110 e
b11111111111111111111111111110110 u
1(
b0 c
b0 :"
b0 d
b0 ;"
b10000 ("
b10000 0"
b10000 3"
b10000 7"
b11 .
b11 '"
b0 )
b0 _
b0 9"
b0 *
b0 ^
b0 8"
b1100000000010111000100011 q
b1100000000010111000100011 v
b10000 #"
b10000 4"
b11000 X
b11000 ~
b11000 6"
b0 }
b0 2"
0|
0Y
b11101 E
b11101 Q
b11101 F
b11101 P
b11101 x
b11101 %"
b11101 -"
1S
b1000 J
b1000 `
b1000 o
b1111 Z
b1111 i
b11010 [
b11010 h
b100 j
b100 )"
b11111111111111111111111111111111 l
b11111111111111111111111111111111 ,"
b11 k
b11 $"
b1 3
b1 f
0K
b11111110000000000000011011100011 ,
b11111110000000000000011011100011 b
b11111110000000000000011011100011 r
b11111110000000000000011011100011 t
b10000 9
b10000 ""
b100100 :
b100100 s
b101100 6
b101100 !"
b101000 7
b101000 p
b101000 w
b101000 5"
b1011 #
1!
#550
0!
#575
b0 8
b0 C
b0 a
b0 e
b0 u
0(
0<
b0 -
b0 *"
b11110011010000110010110011 q
b11110011010000110010110011 v
b0 +
b0 @
b10100 #"
b10100 4"
b0 O
b0 +"
b0 /"
b0 .
b0 '"
b11101 ("
b11101 0"
b11101 3"
b11101 7"
b10100 6
b10100 !"
b10000 7
b10000 p
b10000 w
b10000 5"
b0 ,
b0 b
b0 r
b0 t
b101000 9
b101000 ""
b101000 :
b101000 s
b1101 J
b1101 `
b1101 o
b0 Z
b0 i
b0 [
b0 h
b1111111 1
b1111111 n
b11111111111111111111111111110110 j
b11111111111111111111111111110110 )"
b0 l
b0 ,"
b0 k
b0 $"
b1000 T
b1000 U
b1000 z
b11111111111111111111111111111111 E
b11111111111111111111111111111111 Q
b0 F
b0 P
b0 x
b0 %"
b0 -"
0S
b11101 {
b11101 1"
1Y
b1100 #
b1 $
1!
#600
0!
#625
b11 0
b11 4
b1111000 8
1A
b111100 e
b111100 u
b10 C
b10 a
b100 c
b100 :"
b11 d
b11 ;"
b0 ("
b0 0"
b0 3"
b0 7"
b110011 +
b110011 @
b11100 )
b11100 _
b11100 9"
b11010 *
b11010 ^
b11010 8"
b11111111111111010000110100010011 q
b11111111111111010000110100010011 v
b11000 #"
b11000 4"
b1000 X
b1000 ~
b1000 6"
b0 {
b0 1"
0Y
b1101 T
b1101 U
b1101 z
b0 E
b0 Q
b0 J
b0 `
b0 o
b0 1
b0 n
b0 j
b0 )"
b0 3
b0 f
b11110011010000110010110011 ,
b11110011010000110010110011 b
b11110011010000110010110011 r
b11110011010000110010110011 t
b10001000 9
b10001000 ""
b10000 :
b10000 s
b11000 6
b11000 !"
b10100 7
b10100 p
b10100 w
b10100 5"
b1101 #
1!
#650
0!
#675
b101 0
b101 4
b1100 /
b1100 I
b11111111111111111111111111111110 8
b11111111111111111111111111111111 e
b11111111111111111111111111111111 u
1;
b0 C
b0 a
b111110 c
b111110 :"
b100 -
b100 *"
b11001010110110000011 q
b11001010110110000011 v
b11100 #"
b11100 4"
b10011 +
b10011 @
b11111 )
b11111 _
b11111 9"
b100 O
b100 +"
b100 /"
b11 .
b11 '"
b11100 6
b11100 !"
b11000 7
b11000 p
b11000 w
b11000 5"
b11111111111111010000110100010011 ,
b11111111111111010000110100010011 b
b11111111111111010000110100010011 r
b11111111111111010000110100010011 t
b10010 9
b10010 ""
b10100 :
b10100 s
b11001 J
b11001 `
b11001 o
b11100 Z
b11100 i
b11010 [
b11010 h
b1 1
b1 n
b111100 j
b111100 )"
b100 l
b100 ,"
b11 k
b11 $"
b10 3
b10 f
1K
b0 T
b0 U
b0 z
b1101 X
b1101 ~
b1101 6"
b1110 #
1!
#700
0!
#725
b10 /
b10 I
b11 0
b11 4
b0 8
b0 e
b0 u
1;
1?
1=
b0 c
b0 :"
b10000 d
b10000 ;"
b111110 O
b111110 +"
b111110 /"
b11111111111111111111111111111111 -
b11111111111111111111111111111111 *"
b11 +
b11 @
b0 )
b0 _
b0 9"
b11001 *
b11001 ^
b11001 8"
b1101111000000110000110011 q
b1101111000000110000110011 v
b100000 #"
b100000 4"
b0 X
b0 ~
b0 6"
b11001 T
b11001 U
b11001 z
b100 E
b100 Q
b1100 F
b1100 P
b1100 x
b1100 %"
b1100 -"
1S
b11010 J
b11010 `
b11010 o
b11111 Z
b11111 i
b1111111 1
b1111111 n
b11111111111111111111111111111111 j
b11111111111111111111111111111111 )"
b111110 l
b111110 ,"
1g
b0 3
b0 f
b11001010110110000011 ,
b11001010110110000011 b
b11001010110110000011 r
b11001010110110000011 t
b11000 9
b11000 ""
b11000 :
b11000 s
b100000 6
b100000 !"
b11100 7
b11100 p
b11100 w
b11100 5"
b1111 #
1!
#750
0!
#775
b1100 /
b1100 I
b110110 8
0;
0\
b11011 e
b11011 u
0A
b11 C
b11 a
1B
1]
b1 W
b1 &"
0?
0=
b11101 c
b11101 :"
b11101 d
b11101 ;"
b111111010000010001100011 q
b111111010000010001100011 v
b100100 #"
b100100 4"
b110011 +
b110011 @
b11011 )
b11011 _
b11011 9"
b11000 *
b11000 ^
b11000 8"
b0 -
b0 *"
b0 O
b0 +"
b0 /"
b1100 .
b1100 '"
b1100 ("
b1100 0"
b1100 3"
b1100 7"
b100100 6
b100100 !"
b100000 7
b100000 p
b100000 w
b100000 5"
b1101111000000110000110011 ,
b1101111000000110000110011 b
b1101111000000110000110011 r
b1101111000000110000110011 t
b1010010 9
b1010010 ""
b11100 :
b11100 s
b11011 J
b11011 `
b11011 o
b0 Z
b0 i
b11001 [
b11001 h
b0 1
b0 n
b10 2
b10 m
b0 j
b0 )"
b0 l
b0 ,"
b10000 k
b10000 $"
1N
1L
b11010 T
b11010 U
b11010 z
b111110 E
b111110 Q
b10 F
b10 P
b10 x
b10 %"
b10 -"
b11001 X
b11001 ~
b11001 6"
b1100 {
b1100 1"
1Y
b10000 #
1!
#800
0!
#825
b101001 /
b101001 I
b10 C
b10 a
b11101 .
b11101 '"
b0 W
b0 &"
1A
b10 V
b10 ."
b1100 -
b1100 *"
1\
b10 ("
b10 0"
b10 3"
b10 7"
b10010 D
b10010 y
b1100 O
b1100 +"
b1100 /"
0]
0B
b11010 X
b11010 ~
b11010 6"
b10 {
b10 1"
b11011 T
b11011 U
b11011 z
b0 E
b0 Q
b1100 F
b1100 P
b1100 x
b1100 %"
b1100 -"
1H
1R
b11000 J
b11000 `
b11000 o
b11011 Z
b11011 i
b11000 [
b11000 h
b0 2
b0 m
b11011 j
b11011 )"
b11101 l
b11101 ,"
b11101 k
b11101 $"
0g
b11 3
b11 f
0N
0L
0K
b10001 #
b10 '
1!
#850
0!
#875
b101111 /
b101111 I
b1000 8
0A
b10010 -
b10010 *"
b100 e
b100 u
b1 C
b1 a
b10010 O
b10010 +"
b10010 /"
1<
b10 d
b10 ;"
b1 V
b1 ."
b11111111111111111111111111111111 c
b11111111111111111111111111111111 :"
b11111110000000000000011011100011 q
b11111110000000000000011011100011 v
b101000 #"
b101000 4"
b1100011 +
b1100011 @
b1111 )
b1111 _
b1111 9"
b11010 *
b11010 ^
b11010 8"
b0 D
b0 y
b10010 ("
b10010 0"
b10010 3"
b10010 7"
b101000 6
b101000 !"
b100100 7
b100100 p
b100100 w
b100100 5"
b111111010000010001100011 ,
b111111010000010001100011 b
b111111010000010001100011 r
b111111010000010001100011 t
b101000 9
b101000 ""
b100000 :
b100000 s
b10 3
b10 f
1K
b11000 T
b11000 U
b11000 z
b1100 E
b1100 Q
b101001 F
b101001 P
b101001 x
b101001 %"
b101001 -"
0H
0R
0S
b11011 X
b11011 ~
b11011 6"
b10010 }
b10010 2"
b1100 {
b1100 1"
1|
b10010 #
1!
#900
0!
#925
b111 0
b111 4
b0 /
b0 I
b11111111111111111111111111111111 -
b11111111111111111111111111111111 *"
b11111111111111111111111111101100 8
b11111111111111111111111111111111 O
b11111111111111111111111111111111 +"
b11111111111111111111111111111111 /"
b0 V
b0 ."
b11111111111111111111111111110110 e
b11111111111111111111111111110110 u
1(
b0 c
b0 :"
b0 d
b0 ;"
b101001 ("
b101001 0"
b101001 3"
b101001 7"
b10 .
b10 '"
b0 )
b0 _
b0 9"
b0 *
b0 ^
b0 8"
b1100000000010111000100011 q
b1100000000010111000100011 v
b10000 #"
b10000 4"
b11000 X
b11000 ~
b11000 6"
b0 }
b0 2"
b101001 {
b101001 1"
0|
0Y
b10010 E
b10010 Q
b101111 F
b101111 P
b101111 x
b101111 %"
b101111 -"
1S
b1000 J
b1000 `
b1000 o
b1111 Z
b1111 i
b11010 [
b11010 h
b100 j
b100 )"
b11111111111111111111111111111111 l
b11111111111111111111111111111111 ,"
b10 k
b10 $"
b1 3
b1 f
0K
b11111110000000000000011011100011 ,
b11111110000000000000011011100011 b
b11111110000000000000011011100011 r
b11111110000000000000011011100011 t
b10000 9
b10000 ""
b100100 :
b100100 s
b101100 6
b101100 !"
b101000 7
b101000 p
b101000 w
b101000 5"
b10011 #
1!
#950
0!
#975
b0 8
b0 C
b0 a
b0 e
b0 u
0(
0<
b0 -
b0 *"
b11110011010000110010110011 q
b11110011010000110010110011 v
b0 +
b0 @
b10100 #"
b10100 4"
b0 O
b0 +"
b0 /"
b0 .
b0 '"
b101111 ("
b101111 0"
b101111 3"
b101111 7"
b10100 6
b10100 !"
b10000 7
b10000 p
b10000 w
b10000 5"
b0 ,
b0 b
b0 r
b0 t
b101000 9
b101000 ""
b101000 :
b101000 s
b1101 J
b1101 `
b1101 o
b0 Z
b0 i
b0 [
b0 h
b1111111 1
b1111111 n
b11111111111111111111111111110110 j
b11111111111111111111111111110110 )"
b0 l
b0 ,"
b0 k
b0 $"
b1000 T
b1000 U
b1000 z
b11111111111111111111111111111111 E
b11111111111111111111111111111111 Q
b0 F
b0 P
b0 x
b0 %"
b0 -"
0S
b101111 {
b101111 1"
1Y
b10100 #
b10 $
1!
#1000
0!
#1025
b11 0
b11 4
b1111000 8
1A
b111100 e
b111100 u
b10 C
b10 a
b100 c
b100 :"
b10 d
b10 ;"
b0 ("
b0 0"
b0 3"
b0 7"
b110011 +
b110011 @
b11100 )
b11100 _
b11100 9"
b11010 *
b11010 ^
b11010 8"
b11111111111111010000110100010011 q
b11111111111111010000110100010011 v
b11000 #"
b11000 4"
b1000 X
b1000 ~
b1000 6"
b0 {
b0 1"
0Y
b1101 T
b1101 U
b1101 z
b0 E
b0 Q
b0 J
b0 `
b0 o
b0 1
b0 n
b0 j
b0 )"
b0 3
b0 f
b11110011010000110010110011 ,
b11110011010000110010110011 b
b11110011010000110010110011 r
b11110011010000110010110011 t
b10001000 9
b10001000 ""
b10000 :
b10000 s
b11000 6
b11000 !"
b10100 7
b10100 p
b10100 w
b10100 5"
b10101 #
1!
#1050
0!
