lab2/log/waveform_3.vcd
$date
	Sun Nov 26 09:39:13 2023
$end
$version
	Icarus Verilog
$end
$timescale
	1s
$end
$scope module TestBench $end
$var reg 1 ! Clk $end
$var reg 1 " Reset $end
$var integer 32 # counter [31:0] $end
$var integer 32 $ flush [31:0] $end
$var integer 32 % i [31:0] $end
$var integer 32 & outfile [31:0] $end
$var integer 32 ' stall [31:0] $end
$scope module CPU $end
$var wire 1 ( ID_FlushIF $end
$var wire 1 ! clk_i $end
$var wire 1 " rst_i $end
$var wire 5 ) rs2 [4:0] $end
$var wire 5 * rs1 [4:0] $end
$var wire 7 + opcode [6:0] $end
$var wire 32 , instruction [31:0] $end
$scope module ALU $end
$var wire 32 - data2_i [31:0] $end
$var wire 32 . data1_i [31:0] $end
$var wire 32 / ALUout_o [31:0] $end
$var wire 3 0 ALUCtrl_i [2:0] $end
$upscope $end
$scope module ALU_Control $end
$var wire 7 1 func7_i [6:0] $end
$var wire 3 2 func3_i [2:0] $end
$var wire 2 3 ALUOp_i [1:0] $end
$var wire 3 4 ALUCtrl_o [2:0] $end
$upscope $end
$scope module Add1 $end
$var wire 32 5 data2_i [31:0] $end
$var wire 32 6 data_o [31:0] $end
$var wire 32 7 data1_i [31:0] $end
$upscope $end
$scope module Add2 $end
$var wire 32 8 data1_i [31:0] $end
$var wire 32 9 data_o [31:0] $end
$var wire 32 : data2_i [31:0] $end
$upscope $end
$scope module Control $end
$var wire 1 ; ALUSrc_o $end
$var wire 1 < Branch_o $end
$var wire 1 = MemRead_o $end
$var wire 1 > MemWrite_o $end
$var wire 1 ? MemtoReg_o $end
$var wire 7 @ Opcode_i [6:0] $end
$var wire 1 A RegWrite_o $end
$var wire 1 B NoOp_i $end
$var wire 2 C ALUOp_o [1:0] $end
$upscope $end
$scope module Data_Memory $end
$var wire 1 ! clk_i $end
$var wire 32 D data_o [31:0] $end
$var wire 32 E data_i [31:0] $end
$var wire 32 F addr_i [31:0] $end
$var wire 1 G MemWrite_i $end
$var wire 1 H MemRead_i $end
$upscope $end
$scope module EX_MEM $end
$var wire 32 I ALUrslt_i [31:0] $end
$var wire 1 ! clk_i $end
$var wire 1 " rst_i $end
$var wire 5 J rd_i [4:0] $end
$var wire 1 K RegWrite_i $end
$var wire 1 L MemtoReg_i $end
$var wire 1 M MemWrite_i $end
$var wire 1 N MemRead_i $end
$var wire 32 O MUXrslt_i [31:0] $end
$var reg 32 P ALUrslt_o [31:0] $end
$var reg 32 Q MUXrslt_o [31:0] $end
$var reg 1 H MemRead_o $end
$var reg 1 G MemWrite_o $end
$var reg 1 R MemtoReg_o $end
$var reg 1 S RegWrite_o $end
$var reg 5 T rd_o [4:0] $end
$upscope $end
$scope module FU $end
$var wire 1 S MEM_RegWrite_i $end
$var wire 5 U MEM_rd_i [4:0] $end
$var wire 2 V forwardB_o [1:0] $end
$var wire 2 W forwardA_o [1:0] $end
$var wire 5 X WB_rd_i [4:0] $end
$var wire 1 Y WB_RegWrite_i $end
$var wire 5 Z EX_rs2_i [4:0] $end
$var wire 5 [ EX_rs1_i [4:0] $end
$upscope $end
$scope module Hazard_Detection $end
$var wire 1 B NoOp_o $end
$var wire 1 \ PCWrite_o $end
$var wire 1 ] Stall_o $end
$var wire 5 ^ rs1_i [4:0] $end
$var wire 5 _ rs2_i [4:0] $end
$var wire 5 ` rd_i [4:0] $end
$var wire 1 N MemRead_i $end
$upscope $end
$scope module ID_EX $end
$var wire 2 a ALUOp_i [1:0] $end
$var wire 1 ; ALUSrc_i $end
$var wire 1 = MemRead_i $end
$var wire 1 > MemWrite_i $end
$var wire 1 ? MemtoReg_i $end
$var wire 1 A RegWrite_i $end
$var wire 1 ! clk_i $end
$var wire 1 " rst_i $end
$var wire 32 b instr_i [31:0] $end
$var wire 32 c data2_i [31:0] $end
$var wire 32 d data1_i [31:0] $end
$var wire 32 e ImmGen_i [31:0] $end
$var reg 2 f ALUOp_o [1:0] $end
$var reg 1 g ALUSrc_o $end
$var reg 5 h EX_rs1_o [4:0] $end
$var reg 5 i EX_rs2_o [4:0] $end
$var reg 32 j ImmGen_o [31:0] $end
$var reg 1 N MemRead_o $end
$var reg 1 M MemWrite_o $end
$var reg 1 L MemtoReg_o $end
$var reg 1 K RegWrite_o $end
$var reg 32 k data1_o [31:0] $end
$var reg 32 l data2_o [31:0] $end
$var reg 3 m func3_o [2:0] $end
$var reg 7 n func7_o [6:0] $end
$var reg 5 o rd_o [4:0] $end
$upscope $end
$scope module IF_ID $end
$var wire 1 ! clk_i $end
$var wire 1 ( flush_i $end
$var wire 1 " rst_i $end
$var wire 1 ] stall_i $end
$var wire 32 p pc_i [31:0] $end
$var wire 32 q instr_i [31:0] $end
$var reg 32 r instr_o [31:0] $end
$var reg 32 s pc_o [31:0] $end
$upscope $end
$scope module ImmGen $end
$var wire 32 t instr_i [31:0] $end
$var wire 32 u imm_o [31:0] $end
$upscope $end
$scope module Instruction_Memory $end
$var wire 32 v instr_o [31:0] $end
$var wire 32 w addr_i [31:0] $end
$upscope $end
$scope module MEM_WB $end
$var wire 32 x ALUrslt_i [31:0] $end
$var wire 1 R MemtoReg_i $end
$var wire 32 y ReadData_i [31:0] $end
$var wire 1 S RegWrite_i $end
$var wire 1 ! clk_i $end
$var wire 5 z rd_i [4:0] $end
$var wire 1 " rst_i $end
$var reg 32 { ALUrslt_o [31:0] $end
$var reg 1 | MemtoReg_o $end
$var reg 32 } ReadData_o [31:0] $end
$var reg 1 Y RegWrite_o $end
$var reg 5 ~ rd_o [4:0] $end
$upscope $end
$scope module MUX1 $end
$var wire 32 !" data0_i [31:0] $end
$var wire 32 "" data1_i [31:0] $end
$var wire 1 ( select_i $end
$var wire 32 #" data_o [31:0] $end
$upscope $end
$scope module MUX11 $end
$var wire 32 $" data00_i [31:0] $end
$var wire 32 %" data10_i [31:0] $end
$var wire 2 &" forward_i [1:0] $end
$var wire 32 '" data_o [31:0] $end
$var wire 32 (" data01_i [31:0] $end
$upscope $end
$scope module MUX2 $end
$var wire 32 )" data1_i [31:0] $end
$var wire 1 g select_i $end
$var wire 32 *" data_o [31:0] $end
$var wire 32 +" data0_i [31:0] $end
$upscope $end
$scope module MUX22 $end
$var wire 32 ," data00_i [31:0] $end
$var wire 32 -" data10_i [31:0] $end
$var wire 2 ." forward_i [1:0] $end
$var wire 32 /" data_o [31:0] $end
$var wire 32 0" data01_i [31:0] $end
$upscope $end
$scope module MUX3 $end
$var wire 32 1" data0_i [31:0] $end
$var wire 32 2" data1_i [31:0] $end
$var wire 1 | select_i $end
$var wire 32 3" data_o [31:0] $end
$upscope $end
$scope module PC $end
$var wire 1 \ PCWrite_i $end
$var wire 1 ! clk_i $end
$var wire 32 4" pc_i [31:0] $end
$var wire 1 " rst_i $end
$var reg 32 5" pc_o [31:0] $end
$upscope $end
$scope module Registers $end
$var wire 5 6" RDaddr_i [4:0] $end
$var wire 32 7" RDdata_i [31:0] $end
$var wire 5 8" RS1addr_i [4:0] $end
$var wire 5 9" RS2addr_i [4:0] $end
$var wire 1 Y RegWrite_i $end
$var wire 1 ! clk_i $end
$var wire 1 " rst_i $end
$var wire 32 :" RS2data_o [31:0] $end
$var wire 32 ;" RS1data_o [31:0] $end
$var integer 32 <" i [31:0] $end
$upscope $end
$upscope $end
$upscope $end
$enddefinitions $end
#0
$dumpvars
bx <"
bx ;"
bx :"
bx 9"
bx 8"
bx 7"
bx 6"
bx 5"
bx 4"
bx 3"
bx 2"
bx 1"
bx 0"
bx /"
bx ."
bx -"
bx ,"
bx +"
bx *"
bx )"
bx ("
bx '"
bx &"
bx %"
bx $"
bx #"
bx ""
bx !"
bx ~
bx }
x|
bx {
bx z
bx y
bx x
bx w
bx v
bx u
bx t
bx s
bx r
bx q
bx p
bx o
bx n
bx m
bx l
bx k
bx j
bx i
bx h
xg
bx f
bx e
bx d
bx c
bx b
bx a
bx `
bx _
bx ^
x]
x\
bx [
bx Z
xY
bx X
bx W
bx V
bx U
bx T
xS
xR
bx Q
bx P
bx O
xN
xM
xL
xK
bx J
bx I
xH
xG
bx F
bx E
bx D
bx C
xB
xA
bx @
x?
x>
x=
x<
x;
bx :
bx 9
bx0 8
bx 7
bx 6
b100 5
bx 4
bx 3
bx 2
bx 1
bx 0
bx /
bx .
bx -
bx ,
bx +
bx *
bx )
x(
b0 '
b11 &
b100000 %
b0 $
b0 #
1"
0!
$end
#6
b0 /
b0 I
b11 0
b11 4
0;
0A
b0 -
b0 *"
b100 #"
b100 4"
b0 9
b0 ""
b0 8
b0 C
b0 a
b0 O
b0 +"
b0 /"
b0 .
b0 '"
0(
b0 e
b0 u
0?
0<
0=
0>
b0 V
b0 ."
b0 W
b0 &"
1\
b0 d
b0 ;"
b0 c
b0 :"
b10010000000011 q
b10010000000011 v
b0 +
b0 @
b0 )
b0 _
b0 9"
b0 *
b0 ^
b0 8"
0]
0B
b0 D
b0 y
b0 ("
b0 0"
b0 3"
b0 7"
b100 6
b100 !"
b0 7
b0 p
b0 w
b0 5"
b0 :
b0 s
b0 ,
b0 b
b0 r
b0 t
b0 1
b0 n
b0 2
b0 m
b0 J
b0 `
b0 o
b0 Z
b0 i
b0 [
b0 h
b0 j
b0 )"
b0 l
b0 ,"
b0 k
b0 $"
b11 3
b11 f
0g
0M
0N
0L
0K
b0 T
b0 U
b0 z
b0 E
b0 Q
b0 F
b0 P
b0 x
b0 %"
b0 -"
0G
0H
0R
0S
b0 X
b0 ~
b0 6"
b0 }
b0 2"
b0 {
b0 1"
0|
0Y
b100000 <"
0"
#12
1"
#25
1;
1A
1?
1=
b11 +
b11 @
b100001000000010010110011 q
b100001000000010010110011 v
b1000 #"
b1000 4"
b0 3
b0 f
b10010000000011 ,
b10010000000011 b
b10010000000011 r
b10010000000011 t
b1000 6
b1000 !"
b100 7
b100 p
b100 w
b100 5"
b1 #
1!
#50
0!
#75
b11 C
b11 a
0A
0;
0?
0=
0\
b10000000010010100000011 q
b10000000010010100000011 v
b1100 #"
b1100 4"
b110011 +
b110011 @
b1000 )
b1000 _
b1000 9"
b1000 *
b1000 ^
b1000 8"
1]
1B
b1100 6
b1100 !"
b1000 7
b1000 p
b1000 w
b1000 5"
b100001000000010010110011 ,
b100001000000010010110011 b
b100001000000010010110011 r
b100001000000010010110011 t
b100 9
b100 ""
b100 :
b100 s
b1000 J
b1000 `
b1000 o
b10 2
b10 m
1g
1N
1L
1K
b10 #
1!
#100
0!
#125
b10 C
b10 a
b10 W
b10 &"
b10 V
b10 ."
1A
1\
b101 D
b101 y
0]
0B
b1000 T
b1000 U
b1000 z
1H
1R
1S
b1001 J
b1001 `
b1001 o
b1000 Z
b1000 i
b1000 [
b1000 h
b0 2
b0 m
0g
b11 3
b11 f
0N
0L
0K
b11 #
b1 '
1!
#150
0!
#175
b1010 /
b1010 I
b1000 8
b101 -
b101 *"
b100 e
b100 u
1;
b101 .
b101 '"
b101 O
b101 +"
b101 /"
b0 C
b0 a
1?
1=
b1 W
b1 &"
b1 V
b1 ."
b0 d
b0 ;"
b0 c
b0 :"
b101001010000010110110011 q
b101001010000010110110011 v
b10000 #"
b10000 4"
b11 +
b11 @
b100 )
b100 _
b100 9"
b0 *
b0 ^
b0 8"
b0 D
b0 y
b101 ("
b101 0"
b101 3"
b101 7"
b10000 6
b10000 !"
b1100 7
b1100 p
b1100 w
b1100 5"
b10000000010010100000011 ,
b10000000010010100000011 b
b10000000010010100000011 r
b10000000010010100000011 t
b10000 9
b10000 ""
b1000 :
b1000 s
b10 3
b10 f
1K
b1001 T
b1001 U
b1001 z
0H
0R
0S
b1000 X
b1000 ~
b1000 6"
b101 }
b101 2"
1|
1Y
b100 #
1!
#200
0!
#225
b100 /
b100 I
b0 8
b0 e
b0 u
0;
0\
b0 O
b0 +"
b0 /"
b0 .
b0 '"
b0 V
b0 ."
b0 W
b0 &"
0A
b11 C
b11 a
1B
1]
0?
0=
b0 ("
b0 0"
b0 3"
b0 7"
b100 -
b100 *"
b110011 +
b110011 @
b1010 )
b1010 _
b1010 9"
b1010 *
b1010 ^
b1010 8"
b100000000010011000000011 q
b100000000010011000000011 v
b10100 #"
b10100 4"
b1001 X
b1001 ~
b1001 6"
b0 }
b0 2"
0|
0Y
b101 E
b101 Q
b1010 F
b1010 P
b1010 x
b1010 %"
b1010 -"
1S
b1010 J
b1010 `
b1010 o
b100 Z
b100 i
b0 [
b0 h
b10 2
b10 m
b100 j
b100 )"
1g
b0 3
b0 f
1N
1L
b101001010000010110110011 ,
b101001010000010110110011 b
b101001010000010110110011 r
b101001010000010110110011 t
b1100 9
b1100 ""
b1100 :
b1100 s
b10100 6
b10100 !"
b10000 7
b10000 p
b10000 w
b10000 5"
b101 #
1!
#250
0!
#275
b100 O
b100 +"
b100 /"
b100 .
b100 '"
b1000 /
b1000 I
b10 C
b10 a
1A
b10 V
b10 ."
b10 W
b10 &"
1\
b100 -
b100 *"
0]
0B
b110 D
b110 y
b1010 ("
b1010 0"
b1010 3"
b1010 7"
b1011 J
b1011 `
b1011 o
b1010 Z
b1010 i
b1010 [
b1010 h
b0 2
b0 m
b0 j
b0 )"
0g
b11 3
b11 f
0N
0L
0K
b1010 T
b1010 U
b1010 z
b0 E
b0 Q
b100 F
b100 P
b100 x
b100 %"
b100 -"
1H
1R
b1010 {
b1010 1"
1Y
b110 #
b10 '
1!
#300
0!
#325
b1100 /
b1100 I
b10000 8
b110 -
b110 *"
b1000 e
b1000 u
1;
b110 .
b110 '"
b110 O
b110 +"
b110 /"
b0 C
b0 a
b1 W
b1 &"
b1 V
b1 ."
1?
1=
b101 c
b101 :"
b110 ("
b110 0"
b110 3"
b110 7"
b0 D
b0 y
b11 +
b11 @
b1000 )
b1000 _
b1000 9"
b0 *
b0 ^
b0 8"
b110001100000011010110011 q
b110001100000011010110011 v
b11000 #"
b11000 4"
b1010 X
b1010 ~
b1010 6"
b110 }
b110 2"
b100 {
b100 1"
1|
b1011 T
b1011 U
b1011 z
b100 E
b100 Q
b1000 F
b1000 P
b1000 x
b1000 %"
b1000 -"
0H
0R
0S
b10 3
b10 f
1K
b100000000010011000000011 ,
b100000000010011000000011 b
b100000000010011000000011 r
b100000000010011000000011 t
b100000 9
b100000 ""
b10000 :
b10000 s
b11000 6
b11000 !"
b10100 7
b10100 p
b10100 w
b10100 5"
b111 #
1!
#350
0!
#375
b0 8
b1000 /
b1000 I
b0 e
b0 u
0;
0\
0A
b11 C
b11 a
1B
1]
b0 V
b0 ."
b0 W
b0 &"
b101 O
b101 +"
b101 /"
b0 .
b0 '"
0?
0=
b0 c
b0 :"
b110000000010011100000011 q
b110000000010011100000011 v
b11100 #"
b11100 4"
b110011 +
b110011 @
b1100 )
b1100 _
b1100 9"
b1100 *
b1100 ^
b1100 8"
b1000 -
b1000 *"
b1000 ("
b1000 0"
b1000 3"
b1000 7"
b11100 6
b11100 !"
b11000 7
b11000 p
b11000 w
b11000 5"
b110001100000011010110011 ,
b110001100000011010110011 b
b110001100000011010110011 r
b110001100000011010110011 t
b10100 9
b10100 ""
b10100 :
b10100 s
b1100 J
b1100 `
b1100 o
b1000 Z
b1000 i
b0 [
b0 h
b10 2
b10 m
b1000 j
b1000 )"
b101 l
b101 ,"
1g
b0 3
b0 f
1N
1L
b110 E
b110 Q
b1100 F
b1100 P
b1100 x
b1100 %"
b1100 -"
1S
b1011 X
b1011 ~
b1011 6"
b0 }
b0 2"
b1000 {
b1000 1"
0|
0Y
b1000 #
1!
#400
0!
#425
b1000 .
b1000 '"
b10000 /
b10000 I
b10 C
b10 a
1A
b10 W
b10 &"
b10 V
b10 ."
1\
b1100 ("
b1100 0"
b1100 3"
b1100 7"
b1010 D
b1010 y
b1000 O
b1000 +"
b1000 /"
b1000 -
b1000 *"
0]
0B
b1100 {
b1100 1"
1Y
b1100 T
b1100 U
b1100 z
b101 E
b101 Q
b1000 F
b1000 P
b1000 x
b1000 %"
b1000 -"
1H
1R
b1101 J
b1101 `
b1101 o
b1100 Z
b1100 i
b1100 [
b1100 h
b0 2
b0 m
b0 j
b0 )"
b0 l
b0 ,"
0g
b11 3
b11 f
0N
0L
0K
b1001 #
b11 '
1!
#450
0!
#475
b10100 /
b10100 I
b11000 8
b1100 e
b1100 u
1;
b1010 -
b1010 *"
b0 C
b0 a
b1010 .
b1010 '"
b1010 O
b1010 +"
b1010 /"
1?
1=
b1 W
b1 &"
b1 V
b1 ."
b0 d
b0 ;"
b1010 c
b1010 :"
b111001110000011110110011 q
b111001110000011110110011 v
b100000 #"
b100000 4"
b11 +
b11 @
b0 *
b0 ^
b0 8"
b0 D
b0 y
b1010 ("
b1010 0"
b1010 3"
b1010 7"
b100000 6
b100000 !"
b11100 7
b11100 p
b11100 w
b11100 5"
b110000000010011100000011 ,
b110000000010011100000011 b
b110000000010011100000011 r
b110000000010011100000011 t
b110000 9
b110000 ""
b11000 :
b11000 s
b10 3
b10 f
1K
b1101 T
b1101 U
b1101 z
b1000 E
b1000 Q
b10000 F
b10000 P
b10000 x
b10000 %"
b10000 -"
0H
0R
0S
b1100 X
b1100 ~
b1100 6"
b1010 }
b1010 2"
b1000 {
b1000 1"
1|
b1010 #
1!
#500
0!
#525
b1100 /
b1100 I
b0 8
b0 e
b0 u
0;
0\
b0 V
b0 ."
b1010 O
b1010 +"
b1010 /"
b0 .
b0 '"
b0 W
b0 &"
0A
b11 C
b11 a
1B
1]
b0 c
b0 :"
0?
0=
b10000 ("
b10000 0"
b10000 3"
b10000 7"
b1100 -
b1100 *"
b110011 +
b110011 @
b1110 )
b1110 _
b1110 9"
b1110 *
b1110 ^
b1110 8"
b1110011000000100000110011 q
b1110011000000100000110011 v
b100100 #"
b100100 4"
b1101 X
b1101 ~
b1101 6"
b0 }
b0 2"
b10000 {
b10000 1"
0|
0Y
b1010 E
b1010 Q
b10100 F
b10100 P
b10100 x
b10100 %"
b10100 -"
1S
b1110 J
b1110 `
b1110 o
b0 [
b0 h
b10 2
b10 m
b1100 j
b1100 )"
b1010 l
b1010 ,"
1g
b0 3
b0 f
1N
1L
b111001110000011110110011 ,
b111001110000011110110011 b
b111001110000011110110011 r
b111001110000011110110011 t
b11100 9
b11100 ""
b11100 :
b11100 s
b100100 6
b100100 !"
b100000 7
b100000 p
b100000 w
b100000 5"
b1011 #
1!
#550
0!
#575
b1100 .
b1100 '"
b11000 /
b11000 I
b10 C
b10 a
1A
b10 V
b10 ."
b10 W
b10 &"
1\
b10010 D
b10010 y
b1100 O
b1100 +"
b1100 /"
b1100 -
b1100 *"
0]
0B
b10100 ("
b10100 0"
b10100 3"
b10100 7"
b1111 J
b1111 `
b1111 o
b1110 Z
b1110 i
b1110 [
b1110 h
b0 2
b0 m
b0 j
b0 )"
b0 l
b0 ,"
0g
b11 3
b11 f
0N
0L
0K
b1110 T
b1110 U
b1110 z
b1100 F
b1100 P
b1100 x
b1100 %"
b1100 -"
1H
1R
b10100 {
b10100 1"
1Y
b1100 #
b100 '
1!
#600
0!
#625
b100100 /
b100100 I
b10010 -
b10010 *"
b10010 .
b10010 '"
b10010 O
b10010 +"
b10010 /"
b1 W
b1 &"
b1 V
b1 ."
b111000 c
b111000 :"
b11111111111111111111111111101000 d
b11111111111111111111111111101000 ;"
b10010 ("
b10010 0"
b10010 3"
b10010 7"
b0 D
b0 y
b11100 )
b11100 _
b11100 9"
b11000 *
b11000 ^
b11000 8"
b1110111001000100010110011 q
b1110111001000100010110011 v
b101000 #"
b101000 4"
b1110 X
b1110 ~
b1110 6"
b10010 }
b10010 2"
b1100 {
b1100 1"
1|
b1111 T
b1111 U
b1111 z
b1100 E
b1100 Q
b11000 F
b11000 P
b11000 x
b11000 %"
b11000 -"
0H
0R
0S
b10 3
b10 f
1K
b1110011000000100000110011 ,
b1110011000000100000110011 b
b1110011000000100000110011 r
b1110011000000100000110011 t
b100000 9
b100000 ""
b100000 :
b100000 s
b101000 6
b101000 !"
b100100 7
b100100 p
b100100 w
b100100 5"
b1101 #
1!
#650
0!
#675
b100000 /
b100000 I
b111000 -
b111000 *"
b0 V
b0 ."
b0 W
b0 &"
b111000 O
b111000 +"
b111000 /"
b11111111111111111111111111101000 .
b11111111111111111111111111101000 '"
b111010 c
b111010 :"
b11111111111111111111111111100111 d
b11111111111111111111111111100111 ;"
b1111011010000100100110011 q
b1111011010000100100110011 v
b101100 #"
b101100 4"
b11101 )
b11101 _
b11101 9"
b11001 *
b11001 ^
b11001 8"
b11000 ("
b11000 0"
b11000 3"
b11000 7"
b101100 6
b101100 !"
b101000 7
b101000 p
b101000 w
b101000 5"
b1110111001000100010110011 ,
b1110111001000100010110011 b
b1110111001000100010110011 r
b1110111001000100010110011 t
b100100 9
b100100 ""
b100100 :
b100100 s
b10000 J
b10000 `
b10000 o
b11100 Z
b11100 i
b11000 [
b11000 h
b111000 l
b111000 ,"
b11111111111111111111111111101000 k
b11111111111111111111111111101000 $"
b10010 E
b10010 Q
b100100 F
b100100 P
b100100 x
b100100 %"
b100100 -"
1S
b1111 X
b1111 ~
b1111 6"
b0 }
b0 2"
b11000 {
b11000 1"
0|
0Y
b1110 #
1!
#700
0!
#725
b100001 /
b100001 I
b111010 -
b111010 *"
b111100 c
b111100 :"
b11111111111111111111111111100110 d
b11111111111111111111111111100110 ;"
b100100 ("
b100100 0"
b100100 3"
b100100 7"
b111010 O
b111010 +"
b111010 /"
b11111111111111111111111111100111 .
b11111111111111111111111111100111 '"
b11110 )
b11110 _
b11110 9"
b11010 *
b11010 ^
b11010 8"
b1111111011000100110110011 q
b1111111011000100110110011 v
b110000 #"
b110000 4"
b100100 {
b100100 1"
1Y
b10000 T
b10000 U
b10000 z
b111000 E
b111000 Q
b100000 F
b100000 P
b100000 x
b100000 %"
b100000 -"
b10001 J
b10001 `
b10001 o
b11101 Z
b11101 i
b11001 [
b11001 h
b111010 l
b111010 ,"
b11111111111111111111111111100111 k
b11111111111111111111111111100111 $"
b1111011010000100100110011 ,
b1111011010000100100110011 b
b1111011010000100100110011 r
b1111011010000100100110011 t
b101000 9
b101000 ""
b101000 :
b101000 s
b110000 6
b110000 !"
b101100 7
b101100 p
b101100 w
b101100 5"
b1111 #
1!
#750
0!
#775
b100010 /
b100010 I
b111110 c
b111110 :"
b11111111111111111111111111100101 d
b11111111111111111111111111100101 ;"
b111100 -
b111100 *"
b10000010000011 q
b10000010000011 v
b110100 #"
b110100 4"
b11111 )
b11111 _
b11111 9"
b11011 *
b11011 ^
b11011 8"
b111100 O
b111100 +"
b111100 /"
b11111111111111111111111111100110 .
b11111111111111111111111111100110 '"
b100000 ("
b100000 0"
b100000 3"
b100000 7"
b110100 6
b110100 !"
b110000 7
b110000 p
b110000 w
b110000 5"
b1111111011000100110110011 ,
b1111111011000100110110011 b
b1111111011000100110110011 r
b1111111011000100110110011 t
b101100 9
b101100 ""
b101100 :
b101100 s
b10010 J
b10010 `
b10010 o
b11110 Z
b11110 i
b11010 [
b11010 h
b111100 l
b111100 ,"
b11111111111111111111111111100110 k
b11111111111111111111111111100110 $"
b10001 T
b10001 U
b10001 z
b111010 E
b111010 Q
b100001 F
b100001 P
b100001 x
b100001 %"
b100001 -"
b10000 X
b10000 ~
b10000 6"
b100000 {
b100000 1"
b10000 #
1!
#800
0!
#825
b100011 /
b100011 I
1;
b0 C
b0 a
b111110 -
b111110 *"
1?
1=
b0 c
b0 :"
b0 d
b0 ;"
b100001 ("
b100001 0"
b100001 3"
b100001 7"
b111110 O
b111110 +"
b111110 /"
b11111111111111111111111111100101 .
b11111111111111111111111111100101 '"
b11 +
b11 @
b0 )
b0 _
b0 9"
b0 *
b0 ^
b0 8"
b111110011100000000000010010011 q
b111110011100000000000010010011 v
b111000 #"
b111000 4"
b10001 X
b10001 ~
b10001 6"
b100001 {
b100001 1"
b10010 T
b10010 U
b10010 z
b111100 E
b111100 Q
b100010 F
b100010 P
b100010 x
b100010 %"
b100010 -"
b10011 J
b10011 `
b10011 o
b11111 Z
b11111 i
b11011 [
b11011 h
b111110 l
b111110 ,"
b11111111111111111111111111100101 k
b11111111111111111111111111100101 $"
b10000010000011 ,
b10000010000011 b
b10000010000011 r
b10000010000011 t
b110000 9
b110000 ""
b110000 :
b110000 s
b111000 6
b111000 !"
b110100 7
b110100 p
b110100 w
b110100 5"
b10001 #
1!
#850
0!
#875
b11111001110 8
b0 /
b0 I
b1111100111 e
b1111100111 u
1A
0?
0=
b10000100000011 q
b10000100000011 v
b111100 #"
b111100 4"
b10011 +
b10011 @
b111 )
b111 _
b111 9"
b0 O
b0 +"
b0 /"
b0 .
b0 '"
b0 -
b0 *"
b100010 ("
b100010 0"
b100010 3"
b100010 7"
b111100 6
b111100 !"
b111000 7
b111000 p
b111000 w
b111000 5"
b111110011100000000000010010011 ,
b111110011100000000000010010011 b
b111110011100000000000010010011 r
b111110011100000000000010010011 t
b100000000010 9
b100000000010 ""
b110100 :
b110100 s
b1 J
b1 `
b1 o
b0 Z
b0 i
b0 [
b0 h
b10 2
b10 m
b0 l
b0 ,"
b0 k
b0 $"
1g
b0 3
b0 f
1N
1L
b10011 T
b10011 U
b10011 z
b111110 E
b111110 Q
b100011 F
b100011 P
b100011 x
b100011 %"
b100011 -"
b10010 X
b10010 ~
b10010 6"
b100010 {
b100010 1"
b10010 #
1!
#900
0!
#925
b1111100111 /
b1111100111 I
b0 8
b0 e
b0 u
1;
b101 D
b101 y
1?
1=
b100011 ("
b100011 0"
b100011 3"
b100011 7"
b1111100111 -
b1111100111 *"
b11 +
b11 @
b0 )
b0 _
b0 9"
b110111100000000000000100010011 q
b110111100000000000000100010011 v
b1000000 #"
b1000000 4"
b10011 X
b10011 ~
b10011 6"
b100011 {
b100011 1"
b1 T
b1 U
b1 z
b0 E
b0 Q
b0 F
b0 P
b0 x
b0 %"
b0 -"
1H
1R
b111 Z
b111 i
b11111 1
b11111 n
b0 2
b0 m
b1111100111 j
b1111100111 )"
0N
0L
b10000100000011 ,
b10000100000011 b
b10000100000011 r
b10000100000011 t
b111000 9
b111000 ""
b111000 :
b111000 s
b1000000 6
b1000000 !"
b111100 7
b111100 p
b111100 w
b111100 5"
b10011 #
1!
#950
0!
#975
b11011110000 8
b0 /
b0 I
b1101111000 e
b1101111000 u
1A
0?
0=
b11111111111111111111111111101000 c
b11111111111111111111111111101000 :"
b10000110000011 q
b10000110000011 v
b1000100 #"
b1000100 4"
b10011 +
b10011 @
b11000 )
b11000 _
b11000 9"
b0 -
b0 *"
b0 D
b0 y
b101 ("
b101 0"
b101 3"
b101 7"
b1000100 6
b1000100 !"
b1000000 7
b1000000 p
b1000000 w
b1000000 5"
b110111100000000000000100010011 ,
b110111100000000000000100010011 b
b110111100000000000000100010011 r
b110111100000000000000100010011 t
b11100101100 9
b11100101100 ""
b111100 :
b111100 s
b10 J
b10 `
b10 o
b0 Z
b0 i
b0 1
b0 n
b10 2
b10 m
b0 j
b0 )"
1N
1L
b1111100111 F
b1111100111 P
b1111100111 x
b1111100111 %"
b1111100111 -"
0H
0R
b1 X
b1 ~
b1 6"
b101 }
b101 2"
b0 {
b0 1"
1|
b10100 #
1!
#1000
0!
#1025
b1101111000 /
b1101111000 I
b0 8
b0 e
b0 u
1;
1?
1=
b0 c
b0 :"
b1111100111 ("
b1111100111 0"
b1111100111 3"
b1111100111 7"
b101 D
b101 y
b1101111000 -
b1101111000 *"
b11111111111111111111111111101000 O
b11111111111111111111111111101000 +"
b11111111111111111111111111101000 /"
b11 +
b11 @
b0 )
b0 _
b0 9"
b110000100100000000000110010011 q
b110000100100000000000110010011 v
b1001000 #"
b1001000 4"
b0 }
b0 2"
b1111100111 {
b1111100111 1"
0|
b10 T
b10 U
b10 z
b0 F
b0 P
b0 x
b0 %"
b0 -"
1H
1R
b11000 Z
b11000 i
b11011 1
b11011 n
b0 2
b0 m
b1101111000 j
b1101111000 )"
b11111111111111111111111111101000 l
b11111111111111111111111111101000 ,"
0N
0L
b10000110000011 ,
b10000110000011 b
b10000110000011 r
b10000110000011 t
b1000000 9
b1000000 ""
b1000000 :
b1000000 s
b1001000 6
b1001000 !"
b1000100 7
b1000100 p
b1000100 w
b1000100 5"
b10101 #
1!
#1050
0!
#1075
b11000010010 8
b0 /
b0 I
b1100001001 e
b1100001001 u
1A
0?
0=
b1010 c
b1010 :"
b0 q
b0 v
b1001100 #"
b1001100 4"
b10011 +
b10011 @
b1001 )
b1001 _
b1001 9"
b0 -
b0 *"
b0 O
b0 +"
b0 /"
b0 D
b0 y
b101 ("
b101 0"
b101 3"
b101 7"
b1001100 6
b1001100 !"
b1001000 7
b1001000 p
b1001000 w
b1001000 5"
b110000100100000000000110010011 ,
b110000100100000000000110010011 b
b110000100100000000000110010011 r
b110000100100000000000110010011 t
b11001010110 9
b11001010110 ""
b1000100 :
b1000100 s
b11 J
b11 `
b11 o
b0 Z
b0 i
b0 1
b0 n
b10 2
b10 m
b0 j
b0 )"
b0 l
b0 ,"
1N
1L
b11111111111111111111111111101000 E
b11111111111111111111111111101000 Q
b1101111000 F
b1101111000 P
b1101111000 x
b1101111000 %"
b1101111000 -"
0H
0R
b10 X
b10 ~
b10 6"
b101 }
b101 2"
b0 {
b0 1"
1|
b10110 #
1!
#1100
0!
