lab2/log/waveform_1.vcd
$date
	Sun Nov 26 09:39:13 2023
$end
$version
	Icarus Verilog
$end
$timescale
	1s
$end
$scope module TestBench $end
$var reg 1 ! Clk $end
$var reg 1 " Reset $end
$var integer 32 # counter [31:0] $end
$var integer 32 $ flush [31:0] $end
$var integer 32 % i [31:0] $end
$var integer 32 & outfile [31:0] $end
$var integer 32 ' stall [31:0] $end
$scope module CPU $end
$var wire 1 ( ID_FlushIF $end
$var wire 1 ! clk_i $end
$var wire 1 " rst_i $end
$var wire 5 ) rs2 [4:0] $end
$var wire 5 * rs1 [4:0] $end
$var wire 7 + opcode [6:0] $end
$var wire 32 , instruction [31:0] $end
$scope module ALU $end
$var wire 32 - data2_i [31:0] $end
$var wire 32 . data1_i [31:0] $end
$var wire 32 / ALUout_o [31:0] $end
$var wire 3 0 ALUCtrl_i [2:0] $end
$upscope $end
$scope module ALU_Control $end
$var wire 7 1 func7_i [6:0] $end
$var wire 3 2 func3_i [2:0] $end
$var wire 2 3 ALUOp_i [1:0] $end
$var wire 3 4 ALUCtrl_o [2:0] $end
$upscope $end
$scope module Add1 $end
$var wire 32 5 data2_i [31:0] $end
$var wire 32 6 data_o [31:0] $end
$var wire 32 7 data1_i [31:0] $end
$upscope $end
$scope module Add2 $end
$var wire 32 8 data1_i [31:0] $end
$var wire 32 9 data_o [31:0] $end
$var wire 32 : data2_i [31:0] $end
$upscope $end
$scope module Control $end
$var wire 1 ; ALUSrc_o $end
$var wire 1 < Branch_o $end
$var wire 1 = MemRead_o $end
$var wire 1 > MemWrite_o $end
$var wire 1 ? MemtoReg_o $end
$var wire 7 @ Opcode_i [6:0] $end
$var wire 1 A RegWrite_o $end
$var wire 1 B NoOp_i $end
$var wire 2 C ALUOp_o [1:0] $end
$upscope $end
$scope module Data_Memory $end
$var wire 1 ! clk_i $end
$var wire 32 D data_o [31:0] $end
$var wire 32 E data_i [31:0] $end
$var wire 32 F addr_i [31:0] $end
$var wire 1 G MemWrite_i $end
$var wire 1 H MemRead_i $end
$upscope $end
$scope module EX_MEM $end
$var wire 32 I ALUrslt_i [31:0] $end
$var wire 1 ! clk_i $end
$var wire 1 " rst_i $end
$var wire 5 J rd_i [4:0] $end
$var wire 1 K RegWrite_i $end
$var wire 1 L MemtoReg_i $end
$var wire 1 M MemWrite_i $end
$var wire 1 N MemRead_i $end
$var wire 32 O MUXrslt_i [31:0] $end
$var reg 32 P ALUrslt_o [31:0] $end
$var reg 32 Q MUXrslt_o [31:0] $end
$var reg 1 H MemRead_o $end
$var reg 1 G MemWrite_o $end
$var reg 1 R MemtoReg_o $end
$var reg 1 S RegWrite_o $end
$var reg 5 T rd_o [4:0] $end
$upscope $end
$scope module FU $end
$var wire 1 S MEM_RegWrite_i $end
$var wire 5 U MEM_rd_i [4:0] $end
$var wire 2 V forwardB_o [1:0] $end
$var wire 2 W forwardA_o [1:0] $end
$var wire 5 X WB_rd_i [4:0] $end
$var wire 1 Y WB_RegWrite_i $end
$var wire 5 Z EX_rs2_i [4:0] $end
$var wire 5 [ EX_rs1_i [4:0] $end
$upscope $end
$scope module Hazard_Detection $end
$var wire 1 B NoOp_o $end
$var wire 1 \ PCWrite_o $end
$var wire 1 ] Stall_o $end
$var wire 5 ^ rs1_i [4:0] $end
$var wire 5 _ rs2_i [4:0] $end
$var wire 5 ` rd_i [4:0] $end
$var wire 1 N MemRead_i $end
$upscope $end
$scope module ID_EX $end
$var wire 2 a ALUOp_i [1:0] $end
$var wire 1 ; ALUSrc_i $end
$var wire 1 = MemRead_i $end
$var wire 1 > MemWrite_i $end
$var wire 1 ? MemtoReg_i $end
$var wire 1 A RegWrite_i $end
$var wire 1 ! clk_i $end
$var wire 1 " rst_i $end
$var wire 32 b instr_i [31:0] $end
$var wire 32 c data2_i [31:0] $end
$var wire 32 d data1_i [31:0] $end
$var wire 32 e ImmGen_i [31:0] $end
$var reg 2 f ALUOp_o [1:0] $end
$var reg 1 g ALUSrc_o $end
$var reg 5 h EX_rs1_o [4:0] $end
$var reg 5 i EX_rs2_o [4:0] $end
$var reg 32 j ImmGen_o [31:0] $end
$var reg 1 N MemRead_o $end
$var reg 1 M MemWrite_o $end
$var reg 1 L MemtoReg_o $end
$var reg 1 K RegWrite_o $end
$var reg 32 k data1_o [31:0] $end
$var reg 32 l data2_o [31:0] $end
$var reg 3 m func3_o [2:0] $end
$var reg 7 n func7_o [6:0] $end
$var reg 5 o rd_o [4:0] $end
$upscope $end
$scope module IF_ID $end
$var wire 1 ! clk_i $end
$var wire 1 ( flush_i $end
$var wire 1 " rst_i $end
$var wire 1 ] stall_i $end
$var wire 32 p pc_i [31:0] $end
$var wire 32 q instr_i [31:0] $end
$var reg 32 r instr_o [31:0] $end
$var reg 32 s pc_o [31:0] $end
$upscope $end
$scope module ImmGen $end
$var wire 32 t instr_i [31:0] $end
$var wire 32 u imm_o [31:0] $end
$upscope $end
$scope module Instruction_Memory $end
$var wire 32 v instr_o [31:0] $end
$var wire 32 w addr_i [31:0] $end
$upscope $end
$scope module MEM_WB $end
$var wire 32 x ALUrslt_i [31:0] $end
$var wire 1 R MemtoReg_i $end
$var wire 32 y ReadData_i [31:0] $end
$var wire 1 S RegWrite_i $end
$var wire 1 ! clk_i $end
$var wire 5 z rd_i [4:0] $end
$var wire 1 " rst_i $end
$var reg 32 { ALUrslt_o [31:0] $end
$var reg 1 | MemtoReg_o $end
$var reg 32 } ReadData_o [31:0] $end
$var reg 1 Y RegWrite_o $end
$var reg 5 ~ rd_o [4:0] $end
$upscope $end
$scope module MUX1 $end
$var wire 32 !" data0_i [31:0] $end
$var wire 32 "" data1_i [31:0] $end
$var wire 1 ( select_i $end
$var wire 32 #" data_o [31:0] $end
$upscope $end
$scope module MUX11 $end
$var wire 32 $" data00_i [31:0] $end
$var wire 32 %" data10_i [31:0] $end
$var wire 2 &" forward_i [1:0] $end
$var wire 32 '" data_o [31:0] $end
$var wire 32 (" data01_i [31:0] $end
$upscope $end
$scope module MUX2 $end
$var wire 32 )" data1_i [31:0] $end
$var wire 1 g select_i $end
$var wire 32 *" data_o [31:0] $end
$var wire 32 +" data0_i [31:0] $end
$upscope $end
$scope module MUX22 $end
$var wire 32 ," data00_i [31:0] $end
$var wire 32 -" data10_i [31:0] $end
$var wire 2 ." forward_i [1:0] $end
$var wire 32 /" data_o [31:0] $end
$var wire 32 0" data01_i [31:0] $end
$upscope $end
$scope module MUX3 $end
$var wire 32 1" data0_i [31:0] $end
$var wire 32 2" data1_i [31:0] $end
$var wire 1 | select_i $end
$var wire 32 3" data_o [31:0] $end
$upscope $end
$scope module PC $end
$var wire 1 \ PCWrite_i $end
$var wire 1 ! clk_i $end
$var wire 32 4" pc_i [31:0] $end
$var wire 1 " rst_i $end
$var reg 32 5" pc_o [31:0] $end
$upscope $end
$scope module Registers $end
$var wire 5 6" RDaddr_i [4:0] $end
$var wire 32 7" RDdata_i [31:0] $end
$var wire 5 8" RS1addr_i [4:0] $end
$var wire 5 9" RS2addr_i [4:0] $end
$var wire 1 Y RegWrite_i $end
$var wire 1 ! clk_i $end
$var wire 1 " rst_i $end
$var wire 32 :" RS2data_o [31:0] $end
$var wire 32 ;" RS1data_o [31:0] $end
$var integer 32 <" i [31:0] $end
$upscope $end
$upscope $end
$upscope $end
$enddefinitions $end
#0
$dumpvars
bx <"
bx ;"
bx :"
bx 9"
bx 8"
bx 7"
bx 6"
bx 5"
bx 4"
bx 3"
bx 2"
bx 1"
bx 0"
bx /"
bx ."
bx -"
bx ,"
bx +"
bx *"
bx )"
bx ("
bx '"
bx &"
bx %"
bx $"
bx #"
bx ""
bx !"
bx ~
bx }
x|
bx {
bx z
bx y
bx x
bx w
bx v
bx u
bx t
bx s
bx r
bx q
bx p
bx o
bx n
bx m
bx l
bx k
bx j
bx i
bx h
xg
bx f
bx e
bx d
bx c
bx b
bx a
bx `
bx _
bx ^
x]
x\
bx [
bx Z
xY
bx X
bx W
bx V
bx U
bx T
xS
xR
bx Q
bx P
bx O
xN
xM
xL
xK
bx J
bx I
xH
xG
bx F
bx E
bx D
bx C
xB
xA
bx @
x?
x>
x=
x<
x;
bx :
bx 9
bx0 8
bx 7
bx 6
b100 5
bx 4
bx 3
bx 2
bx 1
bx 0
bx /
bx .
bx -
bx ,
bx +
bx *
bx )
x(
b0 '
b11 &
b100000 %
b0 $
b0 #
1"
0!
$end
#6
b0 /
b0 I
b11 0
b11 4
0;
0A
b0 -
b0 *"
b100 #"
b100 4"
b0 9
b0 ""
b0 8
b0 C
b0 a
b0 O
b0 +"
b0 /"
b0 .
b0 '"
0(
b0 e
b0 u
0?
0<
0=
0>
b0 V
b0 ."
b0 W
b0 &"
1\
b0 d
b0 ;"
b0 c
b0 :"
b101000000000001000010011 q
b101000000000001000010011 v
b0 +
b0 @
b0 )
b0 _
b0 9"
b0 *
b0 ^
b0 8"
0]
0B
b0 D
b0 y
b0 ("
b0 0"
b0 3"
b0 7"
b100 6
b100 !"
b0 7
b0 p
b0 w
b0 5"
b0 :
b0 s
b0 ,
b0 b
b0 r
b0 t
b0 1
b0 n
b0 2
b0 m
b0 J
b0 `
b0 o
b0 Z
b0 i
b0 [
b0 h
b0 j
b0 )"
b0 l
b0 ,"
b0 k
b0 $"
b11 3
b11 f
0g
0M
0N
0L
0K
b0 T
b0 U
b0 z
b0 E
b0 Q
b0 F
b0 P
b0 x
b0 %"
b0 -"
0G
0H
0R
0S
b0 X
b0 ~
b0 6"
b0 }
b0 2"
b0 {
b0 1"
0|
0Y
b100000 <"
0"
#12
1"
#25
b10100 9
b10100 ""
b10100 8
b1010 e
b1010 u
1A
1;
b10011 +
b10011 @
b1010 )
b1010 _
b1010 9"
b110000000000001010010011 q
b110000000000001010010011 v
b1000 #"
b1000 4"
b0 3
b0 f
b101000000000001000010011 ,
b101000000000001000010011 b
b101000000000001000010011 r
b101000000000001000010011 t
b1000 6
b1000 !"
b100 7
b100 p
b100 w
b100 5"
b1 #
1!
#50
0!
#75
b11000 8
b1010 /
b1010 I
b1100 e
b1100 u
b11111111001100000000001100010011 q
b11111111001100000000001100010011 v
b1100 #"
b1100 4"
b1100 )
b1100 _
b1100 9"
b1010 -
b1010 *"
b1100 6
b1100 !"
b1000 7
b1000 p
b1000 w
b1000 5"
b110000000000001010010011 ,
b110000000000001010010011 b
b110000000000001010010011 r
b110000000000001010010011 t
b11100 9
b11100 ""
b100 :
b100 s
b100 J
b100 `
b100 o
b1010 Z
b1010 i
b1010 j
b1010 )"
1g
1K
b10 #
1!
#100
0!
#125
b1100 /
b1100 I
b11111111111111111111111111100110 8
b11111111111111111111111111110011 e
b11111111111111111111111111110011 u
b1100 -
b1100 *"
b10011 )
b10011 _
b10011 9"
b1000000000000001110010011 q
b1000000000000001110010011 v
b10000 #"
b10000 4"
b100 T
b100 U
b100 z
b1010 F
b1010 P
b1010 x
b1010 %"
b1010 -"
1S
b101 J
b101 `
b101 o
b1100 Z
b1100 i
b1100 j
b1100 )"
b11111111001100000000001100010011 ,
b11111111001100000000001100010011 b
b11111111001100000000001100010011 r
b11111111001100000000001100010011 t
b11111111111111111111111111101110 9
b11111111111111111111111111101110 ""
b1000 :
b1000 s
b10000 6
b10000 !"
b1100 7
b1100 p
b1100 w
b1100 5"
b11 #
1!
#150
0!
#175
b100000 8
b11111111111111111111111111110011 /
b11111111111111111111111111110011 I
b10000 e
b10000 u
b10010000000011 q
b10010000000011 v
b10100 #"
b10100 4"
b10000 )
b10000 _
b10000 9"
b11111111111111111111111111110011 -
b11111111111111111111111111110011 *"
b1010 ("
b1010 0"
b1010 3"
b1010 7"
b10100 6
b10100 !"
b10000 7
b10000 p
b10000 w
b10000 5"
b1000000000000001110010011 ,
b1000000000000001110010011 b
b1000000000000001110010011 r
b1000000000000001110010011 t
b101100 9
b101100 ""
b1100 :
b1100 s
b110 J
b110 `
b110 o
b10011 Z
b10011 i
b1111111 1
b1111111 n
b11111111111111111111111111110011 j
b11111111111111111111111111110011 )"
b101 T
b101 U
b101 z
b1100 F
b1100 P
b1100 x
b1100 %"
b1100 -"
b100 X
b100 ~
b100 6"
b1010 {
b1010 1"
1Y
b100 #
1!
#200
0!
#225
b10000 /
b10000 I
b0 8
b0 e
b0 u
1;
1?
1=
b1100 ("
b1100 0"
b1100 3"
b1100 7"
b10000 -
b10000 *"
b11 +
b11 @
b0 )
b0 _
b0 9"
b10000000010010010000011 q
b10000000010010010000011 v
b11000 #"
b11000 4"
b101 X
b101 ~
b101 6"
b1100 {
b1100 1"
b110 T
b110 U
b110 z
b11111111111111111111111111110011 F
b11111111111111111111111111110011 P
b11111111111111111111111111110011 x
b11111111111111111111111111110011 %"
b11111111111111111111111111110011 -"
b111 J
b111 `
b111 o
b10000 Z
b10000 i
b0 1
b0 n
b10000 j
b10000 )"
b10010000000011 ,
b10010000000011 b
b10010000000011 r
b10010000000011 t
b10000 9
b10000 ""
b10000 :
b10000 s
b11000 6
b11000 !"
b10100 7
b10100 p
b10100 w
b10100 5"
b101 #
1!
#250
0!
#275
b1000 8
b0 /
b0 I
b100 e
b100 u
b1010 c
b1010 :"
b100000000010010100000011 q
b100000000010010100000011 v
b11100 #"
b11100 4"
b100 )
b100 _
b100 9"
b0 -
b0 *"
b11111111111111111111111111110011 ("
b11111111111111111111111111110011 0"
b11111111111111111111111111110011 3"
b11111111111111111111111111110011 7"
b11100 6
b11100 !"
b11000 7
b11000 p
b11000 w
b11000 5"
b10000000010010010000011 ,
b10000000010010010000011 b
b10000000010010010000011 r
b10000000010010010000011 t
b11100 9
b11100 ""
b10100 :
b10100 s
b1000 J
b1000 `
b1000 o
b0 Z
b0 i
b10 2
b10 m
b0 j
b0 )"
1N
1L
b111 T
b111 U
b111 z
b10000 F
b10000 P
b10000 x
b10000 %"
b10000 -"
b110 X
b110 ~
b110 6"
b11111111111111111111111111110011 {
b11111111111111111111111111110011 1"
b110 #
1!
#300
0!
#325
b100 /
b100 I
b10000 8
b1000 e
b1000 u
b0 c
b0 :"
b10000 ("
b10000 0"
b10000 3"
b10000 7"
b101 D
b101 y
b100 -
b100 *"
b1010 O
b1010 +"
b1010 /"
b1000 )
b1000 _
b1000 9"
b11000101010000000100011 q
b11000101010000000100011 v
b100000 #"
b100000 4"
b111 X
b111 ~
b111 6"
b10000 {
b10000 1"
b1000 T
b1000 U
b1000 z
b0 F
b0 P
b0 x
b0 %"
b0 -"
1H
1R
b1001 J
b1001 `
b1001 o
b100 Z
b100 i
b100 j
b100 )"
b1010 l
b1010 ,"
b100000000010010100000011 ,
b100000000010010100000011 b
b100000000010010100000011 r
b100000000010010100000011 t
b101000 9
b101000 ""
b11000 :
b11000 s
b100000 6
b100000 !"
b11100 7
b11100 p
b11100 w
b11100 5"
b111 #
1!
#350
0!
#375
b1000 /
b1000 I
b0 8
0A
b1 V
b1 ."
b0 e
b0 u
0?
0=
1>
b1100 d
b1100 ;"
b110 D
b110 y
b11111111111111111111111111110011 c
b11111111111111111111111111110011 :"
b11100111000000100000110011 q
b11100111000000100000110011 v
b100100 #"
b100100 4"
b100011 +
b100011 @
b110 )
b110 _
b110 9"
b101 *
b101 ^
b101 8"
b1000 -
b1000 *"
b101 O
b101 +"
b101 /"
b101 ("
b101 0"
b101 3"
b101 7"
b100100 6
b100100 !"
b100000 7
b100000 p
b100000 w
b100000 5"
b11000101010000000100011 ,
b11000101010000000100011 b
b11000101010000000100011 r
b11000101010000000100011 t
b11100 9
b11100 ""
b11100 :
b11100 s
b1010 J
b1010 `
b1010 o
b1000 Z
b1000 i
b1000 j
b1000 )"
b0 l
b0 ,"
b1001 T
b1001 U
b1001 z
b1010 E
b1010 Q
b100 F
b100 P
b100 x
b100 %"
b100 -"
b1000 X
b1000 ~
b1000 6"
b101 }
b101 2"
b0 {
b0 1"
1|
b1000 #
1!
#400
0!
#425
b1100 /
b1100 I
0;
1A
b11111111111111111111111111110011 O
b11111111111111111111111111110011 +"
b11111111111111111111111111110011 /"
b0 V
b0 ."
b0 8
b10 C
b10 a
b1010 D
b1010 y
b0 e
b0 u
0>
b11111111111111111111111111100111 c
b11111111111111111111111111100111 :"
b11111111111111111111111111101000 d
b11111111111111111111111111101000 ;"
b110 ("
b110 0"
b110 3"
b110 7"
b0 -
b0 *"
b1100 .
b1100 '"
b110011 +
b110011 @
b11001 )
b11001 _
b11001 9"
b11000 *
b11000 ^
b11000 8"
b11101111010000100010110011 q
b11101111010000100010110011 v
b101000 #"
b101000 4"
b1001 X
b1001 ~
b1001 6"
b110 }
b110 2"
b100 {
b100 1"
b1010 T
b1010 U
b1010 z
b101 E
b101 Q
b1000 F
b1000 P
b1000 x
b1000 %"
b1000 -"
b0 J
b0 `
b0 o
b110 Z
b110 i
b101 [
b101 h
b0 j
b0 )"
b11111111111111111111111111110011 l
b11111111111111111111111111110011 ,"
b1100 k
b1100 $"
1M
0N
0L
0K
b11100111000000100000110011 ,
b11100111000000100000110011 b
b11100111000000100000110011 r
b11100111000000100000110011 t
b100000 9
b100000 ""
b100000 :
b100000 s
b101000 6
b101000 !"
b100100 7
b100100 p
b100100 w
b100100 5"
b1001 #
1!
#450
0!
#475
b101 0
b101 4
b1001011000 /
b1001011000 I
b11111111111111111111111111100101 c
b11111111111111111111111111100101 :"
b11111111111111111111111111100110 d
b11111111111111111111111111100110 ;"
b11110111100000100100110011 q
b11110111100000100100110011 v
b101100 #"
b101100 4"
b11011 )
b11011 _
b11011 9"
b11010 *
b11010 ^
b11010 8"
b11111111111111111111111111100111 O
b11111111111111111111111111100111 +"
b11111111111111111111111111100111 /"
b11111111111111111111111111101000 .
b11111111111111111111111111101000 '"
b11111111111111111111111111100111 -
b11111111111111111111111111100111 *"
b0 D
b0 y
b1010 ("
b1010 0"
b1010 3"
b1010 7"
b101100 6
b101100 !"
b101000 7
b101000 p
b101000 w
b101000 5"
b11101111010000100010110011 ,
b11101111010000100010110011 b
b11101111010000100010110011 r
b11101111010000100010110011 t
b100100 9
b100100 ""
b100100 :
b100100 s
b10000 J
b10000 `
b10000 o
b11001 Z
b11001 i
b11000 [
b11000 h
b1 1
b1 n
b0 2
b0 m
b11111111111111111111111111100111 l
b11111111111111111111111111100111 ,"
b11111111111111111111111111101000 k
b11111111111111111111111111101000 $"
0g
b10 3
b10 f
0M
1K
b0 T
b0 U
b0 z
b11111111111111111111111111110011 E
b11111111111111111111111111110011 Q
b1100 F
b1100 P
b1100 x
b1100 %"
b1100 -"
1G
0H
0R
0S
b1010 X
b1010 ~
b1010 6"
b1010 }
b1010 2"
b1000 {
b1000 1"
b1010 #
1!
#500
0!
#525
b1010111110 /
b1010111110 I
b11111111111111111111111111100101 -
b11111111111111111111111111100101 *"
b111010 c
b111010 :"
b111000 d
b111000 ;"
b1100 ("
b1100 0"
b1100 3"
b1100 7"
b11111111111111111111111111100101 O
b11111111111111111111111111100101 +"
b11111111111111111111111111100101 /"
b11111111111111111111111111100110 .
b11111111111111111111111111100110 '"
b11101 )
b11101 _
b11101 9"
b11100 *
b11100 ^
b11100 8"
b11111111110000100110110011 q
b11111111110000100110110011 v
b110000 #"
b110000 4"
b0 X
b0 ~
b0 6"
b0 }
b0 2"
b1100 {
b1100 1"
0|
0Y
b10000 T
b10000 U
b10000 z
b11111111111111111111111111100111 E
b11111111111111111111111111100111 Q
b1001011000 F
b1001011000 P
b1001011000 x
b1001011000 %"
b1001011000 -"
0G
1S
b10001 J
b10001 `
b10001 o
b11011 Z
b11011 i
b11010 [
b11010 h
b11111111111111111111111111100101 l
b11111111111111111111111111100101 ,"
b11111111111111111111111111100110 k
b11111111111111111111111111100110 $"
b11110111100000100100110011 ,
b11110111100000100100110011 b
b11110111100000100100110011 r
b11110111100000100100110011 t
b101000 9
b101000 ""
b101000 :
b101000 s
b110000 6
b110000 !"
b101100 7
b101100 p
b101100 w
b101100 5"
b1011 #
1!
#550
0!
#575
b110010110000 /
b110010110000 I
b111110 c
b111110 :"
b111100 d
b111100 ;"
b111010 -
b111010 *"
b1000000111010000000100011 q
b1000000111010000000100011 v
b110100 #"
b110100 4"
b11111 )
b11111 _
b11111 9"
b11110 *
b11110 ^
b11110 8"
b111010 O
b111010 +"
b111010 /"
b111000 .
b111000 '"
b1001011000 ("
b1001011000 0"
b1001011000 3"
b1001011000 7"
b110100 6
b110100 !"
b110000 7
b110000 p
b110000 w
b110000 5"
b11111111110000100110110011 ,
b11111111110000100110110011 b
b11111111110000100110110011 r
b11111111110000100110110011 t
b101100 9
b101100 ""
b101100 :
b101100 s
b10010 J
b10010 `
b10010 o
b11101 Z
b11101 i
b11100 [
b11100 h
b111010 l
b111010 ,"
b111000 k
b111000 $"
b10001 T
b10001 U
b10001 z
b11111111111111111111111111100101 E
b11111111111111111111111111100101 Q
b1010111110 F
b1010111110 P
b1010111110 x
b1010111110 %"
b1010111110 -"
b10000 X
b10000 ~
b10000 6"
b1001011000 {
b1001011000 1"
1Y
b1100 #
1!
#600
0!
#625
b111010001000 /
b111010001000 I
1;
0A
b0 C
b0 a
b111110 -
b111110 *"
1>
b1001011000 c
b1001011000 :"
b10000 d
b10000 ;"
b1010111110 ("
b1010111110 0"
b1010111110 3"
b1010111110 7"
b111110 O
b111110 +"
b111110 /"
b111100 .
b111100 '"
b100011 +
b100011 @
b10000 )
b10000 _
b10000 9"
b111 *
b111 ^
b111 8"
b1000100000010001000100011 q
b1000100000010001000100011 v
b111000 #"
b111000 4"
b10001 X
b10001 ~
b10001 6"
b1010111110 {
b1010111110 1"
b10010 T
b10010 U
b10010 z
b111010 E
b111010 Q
b110010110000 F
b110010110000 P
b110010110000 x
b110010110000 %"
b110010110000 -"
b10011 J
b10011 `
b10011 o
b11111 Z
b11111 i
b11110 [
b11110 h
b111110 l
b111110 ,"
b111100 k
b111100 $"
b1000000111010000000100011 ,
b1000000111010000000100011 b
b1000000111010000000100011 r
b1000000111010000000100011 t
b110000 9
b110000 ""
b110000 :
b110000 s
b111000 6
b111000 !"
b110100 7
b110100 p
b110100 w
b110100 5"
b1101 #
1!
#650
0!
#675
b10000 /
b10000 I
b11 0
b11 4
b1000 8
b100 e
b100 u
b1010111110 c
b1010111110 :"
b0 d
b0 ;"
b0 q
b0 v
b111100 #"
b111100 4"
b10001 )
b10001 _
b10001 9"
b0 *
b0 ^
b0 8"
b1001011000 O
b1001011000 +"
b1001011000 /"
b10000 .
b10000 '"
b0 -
b0 *"
b110010110000 ("
b110010110000 0"
b110010110000 3"
b110010110000 7"
b111100 6
b111100 !"
b111000 7
b111000 p
b111000 w
b111000 5"
b1000100000010001000100011 ,
b1000100000010001000100011 b
b1000100000010001000100011 r
b1000100000010001000100011 t
b111100 9
b111100 ""
b110100 :
b110100 s
b0 J
b0 `
b0 o
b10000 Z
b10000 i
b111 [
b111 h
b0 1
b0 n
b10 2
b10 m
b1001011000 l
b1001011000 ,"
b10000 k
b10000 $"
1g
b0 3
b0 f
1M
0K
b10011 T
b10011 U
b10011 z
b111110 E
b111110 Q
b111010001000 F
b111010001000 P
b111010001000 x
b111010001000 %"
b111010001000 -"
b10010 X
b10010 ~
b10010 6"
b110010110000 {
b110010110000 1"
b1110 #
1!
#700
0!
#725
b100 /
b100 I
0;
b0 8
b0 e
b0 u
0>
b0 c
b0 :"
b111010001000 ("
b111010001000 0"
b111010001000 3"
b111010001000 7"
b100 -
b100 *"
b1010111110 O
b1010111110 +"
b1010111110 /"
b0 .
b0 '"
b0 +
b0 @
b0 )
b0 _
b0 9"
b1000000 #"
b1000000 4"
b10011 X
b10011 ~
b10011 6"
b111010001000 {
b111010001000 1"
b0 T
b0 U
b0 z
b1001011000 E
b1001011000 Q
b10000 F
b10000 P
b10000 x
b10000 %"
b10000 -"
1G
0S
b100 J
b100 `
b100 o
b10001 Z
b10001 i
b0 [
b0 h
b100 j
b100 )"
b1010111110 l
b1010111110 ,"
b0 k
b0 $"
b0 ,
b0 b
b0 r
b0 t
b111000 9
b111000 ""
b111000 :
b111000 s
b1000000 6
b1000000 !"
b111100 7
b111100 p
b111100 w
b111100 5"
b1111 #
1!
#750
0!
#775
b0 /
b0 I
b1000100 #"
b1000100 4"
b0 O
b0 +"
b0 /"
b0 -
b0 *"
b10000 ("
b10000 0"
b10000 3"
b10000 7"
b1000100 6
b1000100 !"
b1000000 7
b1000000 p
b1000000 w
b1000000 5"
b111100 9
b111100 ""
b111100 :
b111100 s
b0 J
b0 `
b0 o
b0 Z
b0 i
b0 2
b0 m
b0 j
b0 )"
b0 l
b0 ,"
0g
0M
b100 T
b100 U
b100 z
b1010111110 E
b1010111110 Q
b100 F
b100 P
b100 x
b100 %"
b100 -"
b0 X
b0 ~
b0 6"
b10000 {
b10000 1"
0Y
b10000 #
1!
#800
0!
#825
b100 ("
b100 0"
b100 3"
b100 7"
b1001000 #"
b1001000 4"
b100 X
b100 ~
b100 6"
b100 {
b100 1"
b0 T
b0 U
b0 z
b0 E
b0 Q
b0 F
b0 P
b0 x
b0 %"
b0 -"
0G
b1000000 9
b1000000 ""
b1000000 :
b1000000 s
b1001000 6
b1001000 !"
b1000100 7
b1000100 p
b1000100 w
b1000100 5"
b10001 #
1!
#850
0!
#875
b1001100 #"
b1001100 4"
b0 ("
b0 0"
b0 3"
b0 7"
b1001100 6
b1001100 !"
b1001000 7
b1001000 p
b1001000 w
b1001000 5"
b1000100 9
b1000100 ""
b1000100 :
b1000100 s
b0 X
b0 ~
b0 6"
b0 {
b0 1"
b10010 #
1!
#900
0!
#925
b1010000 #"
b1010000 4"
b1001000 9
b1001000 ""
b1001000 :
b1001000 s
b1010000 6
b1010000 !"
b1001100 7
b1001100 p
b1001100 w
b1001100 5"
b10011 #
1!
#950
0!
#975
b1010100 #"
b1010100 4"
b1010100 6
b1010100 !"
b1010000 7
b1010000 p
b1010000 w
b1010000 5"
b1001100 9
b1001100 ""
b1001100 :
b1001100 s
b10100 #
1!
#1000
0!
#1025
b1011000 #"
b1011000 4"
b1010000 9
b1010000 ""
b1010000 :
b1010000 s
b1011000 6
b1011000 !"
b1010100 7
b1010100 p
b1010100 w
b1010100 5"
b10101 #
1!
#1050
0!
#1075
b1011100 #"
b1011100 4"
b1011100 6
b1011100 !"
b1011000 7
b1011000 p
b1011000 w
b1011000 5"
b1010100 9
b1010100 ""
b1010100 :
b1010100 s
b10110 #
1!
#1100
0!
#1125
b1100000 #"
b1100000 4"
b1011000 9
b1011000 ""
b1011000 :
b1011000 s
b1100000 6
b1100000 !"
b1011100 7
b1011100 p
b1011100 w
b1011100 5"
b10111 #
1!
#1150
0!
#1175
b1100100 #"
b1100100 4"
b1100100 6
b1100100 !"
b1100000 7
b1100000 p
b1100000 w
b1100000 5"
b1011100 9
b1011100 ""
b1011100 :
b1011100 s
b11000 #
1!
#1200
0!
#1225
b1101000 #"
b1101000 4"
b1100000 9
b1100000 ""
b1100000 :
b1100000 s
b1101000 6
b1101000 !"
b1100100 7
b1100100 p
b1100100 w
b1100100 5"
b11001 #
1!
#1250
0!
#1275
b1101100 #"
b1101100 4"
b1101100 6
b1101100 !"
b1101000 7
b1101000 p
b1101000 w
b1101000 5"
b1100100 9
b1100100 ""
b1100100 :
b1100100 s
b11010 #
1!
#1300
0!
#1325
b1110000 #"
b1110000 4"
b1101000 9
b1101000 ""
b1101000 :
b1101000 s
b1110000 6
b1110000 !"
b1101100 7
b1101100 p
b1101100 w
b1101100 5"
b11011 #
1!
#1350
0!
#1375
b1110100 #"
b1110100 4"
b1110100 6
b1110100 !"
b1110000 7
b1110000 p
b1110000 w
b1110000 5"
b1101100 9
b1101100 ""
b1101100 :
b1101100 s
b11100 #
1!
#1400
0!
#1425
b1111000 #"
b1111000 4"
b1110000 9
b1110000 ""
b1110000 :
b1110000 s
b1111000 6
b1111000 !"
b1110100 7
b1110100 p
b1110100 w
b1110100 5"
b11101 #
1!
#1450
0!
#1475
b1111100 #"
b1111100 4"
b1111100 6
b1111100 !"
b1111000 7
b1111000 p
b1111000 w
b1111000 5"
b1110100 9
b1110100 ""
b1110100 :
b1110100 s
b11110 #
1!
#1500
0!
#1525
b10000000 #"
b10000000 4"
b1111000 9
b1111000 ""
b1111000 :
b1111000 s
b10000000 6
b10000000 !"
b1111100 7
b1111100 p
b1111100 w
b1111100 5"
b11111 #
1!
#1550
0!
#1575
b10000100 #"
b10000100 4"
b10000100 6
b10000100 !"
b10000000 7
b10000000 p
b10000000 w
b10000000 5"
b1111100 9
b1111100 ""
b1111100 :
b1111100 s
b100000 #
1!
#1600
0!
#1625
b10001000 #"
b10001000 4"
b10000000 9
b10000000 ""
b10000000 :
b10000000 s
b10001000 6
b10001000 !"
b10000100 7
b10000100 p
b10000100 w
b10000100 5"
b100001 #
1!
#1650
0!
#1675
b10001100 #"
b10001100 4"
b10001100 6
b10001100 !"
b10001000 7
b10001000 p
b10001000 w
b10001000 5"
b10000100 9
b10000100 ""
b10000100 :
b10000100 s
b100010 #
1!
#1700
0!
#1725
b10010000 #"
b10010000 4"
b10001000 9
b10001000 ""
b10001000 :
b10001000 s
b10010000 6
b10010000 !"
b10001100 7
b10001100 p
b10001100 w
b10001100 5"
b100011 #
1!
#1750
0!
#1775
b10010100 #"
b10010100 4"
b10010100 6
b10010100 !"
b10010000 7
b10010000 p
b10010000 w
b10010000 5"
b10001100 9
b10001100 ""
b10001100 :
b10001100 s
b100100 #
1!
#1800
0!
#1825
b10011000 #"
b10011000 4"
b10010000 9
b10010000 ""
b10010000 :
b10010000 s
b10011000 6
b10011000 !"
b10010100 7
b10010100 p
b10010100 w
b10010100 5"
b100101 #
1!
#1850
0!
